('/media/lauraroma/0A8423BE06D94565/Trabajo de '
 'Grado/trabajo-de-grado/main/build/main/PKG-00.pkg',
 {'BINARY': 1,
  'DATA': 1,
  'EXECUTABLE': 1,
  'EXTENSION': 1,
  'PYMODULE': 1,
  'PYSOURCE': 1,
  'PYZ': 0},
 [('PYZ-00.pyz',
   '/media/lauraroma/0A8423BE06D94565/Trabajo de '
   'Grado/trabajo-de-grado/main/build/main/PYZ-00.pyz',
   'PYZ'),
  ('_struct',
   '/home/lauraroma/miniconda3/envs/tg/lib/python3.8/lib-dynload/_struct.cpython-38-x86_64-linux-gnu.so',
   'EXTENSION'),
  ('zlib',
   '/home/lauraroma/miniconda3/envs/tg/lib/python3.8/lib-dynload/zlib.cpython-38-x86_64-linux-gnu.so',
   'EXTENSION'),
  ('struct',
   '/home/lauraroma/miniconda3/envs/tg/lib/python3.8/struct.pyo',
   'PYMODULE'),
  ('pyimod01_os_path',
   '/home/lauraroma/miniconda3/envs/tg/lib/python3.8/site-packages/PyInstaller/loader/pyimod01_os_path.pyc',
   'PYMODULE'),
  ('pyimod02_archive',
   '/home/lauraroma/miniconda3/envs/tg/lib/python3.8/site-packages/PyInstaller/loader/pyimod02_archive.pyc',
   'PYMODULE'),
  ('pyimod03_importers',
   '/home/lauraroma/miniconda3/envs/tg/lib/python3.8/site-packages/PyInstaller/loader/pyimod03_importers.pyc',
   'PYMODULE'),
  ('pyiboot01_bootstrap',
   '/home/lauraroma/miniconda3/envs/tg/lib/python3.8/site-packages/PyInstaller/loader/pyiboot01_bootstrap.py',
   'PYSOURCE'),
  ('pyi_rth__tkinter',
   '/home/lauraroma/miniconda3/envs/tg/lib/python3.8/site-packages/PyInstaller/hooks/rthooks/pyi_rth__tkinter.py',
   'PYSOURCE'),
  ('pyi_rth_multiprocessing',
   '/home/lauraroma/miniconda3/envs/tg/lib/python3.8/site-packages/PyInstaller/hooks/rthooks/pyi_rth_multiprocessing.py',
   'PYSOURCE'),
  ('pyi_rth_pkgres',
   '/home/lauraroma/miniconda3/envs/tg/lib/python3.8/site-packages/PyInstaller/hooks/rthooks/pyi_rth_pkgres.py',
   'PYSOURCE'),
  ('main',
   '/media/lauraroma/0A8423BE06D94565/Trabajo de '
   'Grado/trabajo-de-grado/main/main.py',
   'PYSOURCE')],
 True,
 False,
 False,
 [])
