([('main',
   '/media/lauraroma/0A8423BE06D94565/Trabajo de '
   'Grado/trabajo-de-grado/main/build/main/main',
   'EXECUTABLE'),
  ('array',
   '/home/lauraroma/miniconda3/envs/tg/lib/python3.8/lib-dynload/array.cpython-38-x86_64-linux-gnu.so',
   'EXTENSION'),
  ('_struct',
   '/home/lauraroma/miniconda3/envs/tg/lib/python3.8/lib-dynload/_struct.cpython-38-x86_64-linux-gnu.so',
   'EXTENSION'),
  ('_ctypes',
   '/home/lauraroma/miniconda3/envs/tg/lib/python3.8/lib-dynload/_ctypes.cpython-38-x86_64-linux-gnu.so',
   'EXTENSION'),
  ('select',
   '/home/lauraroma/miniconda3/envs/tg/lib/python3.8/lib-dynload/select.cpython-38-x86_64-linux-gnu.so',
   'EXTENSION'),
  ('math',
   '/home/lauraroma/miniconda3/envs/tg/lib/python3.8/lib-dynload/math.cpython-38-x86_64-linux-gnu.so',
   'EXTENSION'),
  ('binascii',
   '/home/lauraroma/miniconda3/envs/tg/lib/python3.8/lib-dynload/binascii.cpython-38-x86_64-linux-gnu.so',
   'EXTENSION'),
  ('_ssl',
   '/home/lauraroma/miniconda3/envs/tg/lib/python3.8/lib-dynload/_ssl.cpython-38-x86_64-linux-gnu.so',
   'EXTENSION'),
  ('_asyncio',
   '/home/lauraroma/miniconda3/envs/tg/lib/python3.8/lib-dynload/_asyncio.cpython-38-x86_64-linux-gnu.so',
   'EXTENSION'),
  ('_contextvars',
   '/home/lauraroma/miniconda3/envs/tg/lib/python3.8/lib-dynload/_contextvars.cpython-38-x86_64-linux-gnu.so',
   'EXTENSION'),
  ('_queue',
   '/home/lauraroma/miniconda3/envs/tg/lib/python3.8/lib-dynload/_queue.cpython-38-x86_64-linux-gnu.so',
   'EXTENSION'),
  ('mmap',
   '/home/lauraroma/miniconda3/envs/tg/lib/python3.8/lib-dynload/mmap.cpython-38-x86_64-linux-gnu.so',
   'EXTENSION'),
  ('_bisect',
   '/home/lauraroma/miniconda3/envs/tg/lib/python3.8/lib-dynload/_bisect.cpython-38-x86_64-linux-gnu.so',
   'EXTENSION'),
  ('_posixshmem',
   '/home/lauraroma/miniconda3/envs/tg/lib/python3.8/lib-dynload/_posixshmem.cpython-38-x86_64-linux-gnu.so',
   'EXTENSION'),
  ('grp',
   '/home/lauraroma/miniconda3/envs/tg/lib/python3.8/lib-dynload/grp.cpython-38-x86_64-linux-gnu.so',
   'EXTENSION'),
  ('unicodedata',
   '/home/lauraroma/miniconda3/envs/tg/lib/python3.8/lib-dynload/unicodedata.cpython-38-x86_64-linux-gnu.so',
   'EXTENSION'),
  ('_csv',
   '/home/lauraroma/miniconda3/envs/tg/lib/python3.8/lib-dynload/_csv.cpython-38-x86_64-linux-gnu.so',
   'EXTENSION'),
  ('_decimal',
   '/home/lauraroma/miniconda3/envs/tg/lib/python3.8/lib-dynload/_decimal.cpython-38-x86_64-linux-gnu.so',
   'EXTENSION'),
  ('_testcapi',
   '/home/lauraroma/miniconda3/envs/tg/lib/python3.8/lib-dynload/_testcapi.cpython-38-x86_64-linux-gnu.so',
   'EXTENSION'),
  ('termios',
   '/home/lauraroma/miniconda3/envs/tg/lib/python3.8/lib-dynload/termios.cpython-38-x86_64-linux-gnu.so',
   'EXTENSION'),
  ('_tkinter',
   '/home/lauraroma/miniconda3/envs/tg/lib/python3.8/lib-dynload/_tkinter.cpython-38-x86_64-linux-gnu.so',
   'EXTENSION'),
  ('resource',
   '/home/lauraroma/miniconda3/envs/tg/lib/python3.8/lib-dynload/resource.cpython-38-x86_64-linux-gnu.so',
   'EXTENSION'),
  ('_lzma',
   '/home/lauraroma/miniconda3/envs/tg/lib/python3.8/lib-dynload/_lzma.cpython-38-x86_64-linux-gnu.so',
   'EXTENSION'),
  ('_bz2',
   '/home/lauraroma/miniconda3/envs/tg/lib/python3.8/lib-dynload/_bz2.cpython-38-x86_64-linux-gnu.so',
   'EXTENSION'),
  ('zlib',
   '/home/lauraroma/miniconda3/envs/tg/lib/python3.8/lib-dynload/zlib.cpython-38-x86_64-linux-gnu.so',
   'EXTENSION'),
  ('_elementtree',
   '/home/lauraroma/miniconda3/envs/tg/lib/python3.8/lib-dynload/_elementtree.cpython-38-x86_64-linux-gnu.so',
   'EXTENSION'),
  ('pyexpat',
   '/home/lauraroma/miniconda3/envs/tg/lib/python3.8/lib-dynload/pyexpat.cpython-38-x86_64-linux-gnu.so',
   'EXTENSION'),
  ('_posixsubprocess',
   '/home/lauraroma/miniconda3/envs/tg/lib/python3.8/lib-dynload/_posixsubprocess.cpython-38-x86_64-linux-gnu.so',
   'EXTENSION'),
  ('_multiprocessing',
   '/home/lauraroma/miniconda3/envs/tg/lib/python3.8/lib-dynload/_multiprocessing.cpython-38-x86_64-linux-gnu.so',
   'EXTENSION'),
  ('_pickle',
   '/home/lauraroma/miniconda3/envs/tg/lib/python3.8/lib-dynload/_pickle.cpython-38-x86_64-linux-gnu.so',
   'EXTENSION'),
  ('_hashlib',
   '/home/lauraroma/miniconda3/envs/tg/lib/python3.8/lib-dynload/_hashlib.cpython-38-x86_64-linux-gnu.so',
   'EXTENSION'),
  ('_sha3',
   '/home/lauraroma/miniconda3/envs/tg/lib/python3.8/lib-dynload/_sha3.cpython-38-x86_64-linux-gnu.so',
   'EXTENSION'),
  ('_blake2',
   '/home/lauraroma/miniconda3/envs/tg/lib/python3.8/lib-dynload/_blake2.cpython-38-x86_64-linux-gnu.so',
   'EXTENSION'),
  ('_sha512',
   '/home/lauraroma/miniconda3/envs/tg/lib/python3.8/lib-dynload/_sha512.cpython-38-x86_64-linux-gnu.so',
   'EXTENSION'),
  ('_sha256',
   '/home/lauraroma/miniconda3/envs/tg/lib/python3.8/lib-dynload/_sha256.cpython-38-x86_64-linux-gnu.so',
   'EXTENSION'),
  ('_md5',
   '/home/lauraroma/miniconda3/envs/tg/lib/python3.8/lib-dynload/_md5.cpython-38-x86_64-linux-gnu.so',
   'EXTENSION'),
  ('_sha1',
   '/home/lauraroma/miniconda3/envs/tg/lib/python3.8/lib-dynload/_sha1.cpython-38-x86_64-linux-gnu.so',
   'EXTENSION'),
  ('_socket',
   '/home/lauraroma/miniconda3/envs/tg/lib/python3.8/lib-dynload/_socket.cpython-38-x86_64-linux-gnu.so',
   'EXTENSION'),
  ('readline',
   '/home/lauraroma/miniconda3/envs/tg/lib/python3.8/lib-dynload/readline.cpython-38-x86_64-linux-gnu.so',
   'EXTENSION'),
  ('_opcode',
   '/home/lauraroma/miniconda3/envs/tg/lib/python3.8/lib-dynload/_opcode.cpython-38-x86_64-linux-gnu.so',
   'EXTENSION'),
  ('_datetime',
   '/home/lauraroma/miniconda3/envs/tg/lib/python3.8/lib-dynload/_datetime.cpython-38-x86_64-linux-gnu.so',
   'EXTENSION'),
  ('_heapq',
   '/home/lauraroma/miniconda3/envs/tg/lib/python3.8/lib-dynload/_heapq.cpython-38-x86_64-linux-gnu.so',
   'EXTENSION'),
  ('_multibytecodec',
   '/home/lauraroma/miniconda3/envs/tg/lib/python3.8/lib-dynload/_multibytecodec.cpython-38-x86_64-linux-gnu.so',
   'EXTENSION'),
  ('_codecs_cn',
   '/home/lauraroma/miniconda3/envs/tg/lib/python3.8/lib-dynload/_codecs_cn.cpython-38-x86_64-linux-gnu.so',
   'EXTENSION'),
  ('_codecs_iso2022',
   '/home/lauraroma/miniconda3/envs/tg/lib/python3.8/lib-dynload/_codecs_iso2022.cpython-38-x86_64-linux-gnu.so',
   'EXTENSION'),
  ('_codecs_jp',
   '/home/lauraroma/miniconda3/envs/tg/lib/python3.8/lib-dynload/_codecs_jp.cpython-38-x86_64-linux-gnu.so',
   'EXTENSION'),
  ('_codecs_kr',
   '/home/lauraroma/miniconda3/envs/tg/lib/python3.8/lib-dynload/_codecs_kr.cpython-38-x86_64-linux-gnu.so',
   'EXTENSION'),
  ('_codecs_tw',
   '/home/lauraroma/miniconda3/envs/tg/lib/python3.8/lib-dynload/_codecs_tw.cpython-38-x86_64-linux-gnu.so',
   'EXTENSION'),
  ('_codecs_hk',
   '/home/lauraroma/miniconda3/envs/tg/lib/python3.8/lib-dynload/_codecs_hk.cpython-38-x86_64-linux-gnu.so',
   'EXTENSION'),
  ('_random',
   '/home/lauraroma/miniconda3/envs/tg/lib/python3.8/lib-dynload/_random.cpython-38-x86_64-linux-gnu.so',
   'EXTENSION'),
  ('pygame.color',
   '/home/lauraroma/miniconda3/envs/tg/lib/python3.8/site-packages/pygame/color.cpython-38-x86_64-linux-gnu.so',
   'EXTENSION'),
  ('pygame.rect',
   '/home/lauraroma/miniconda3/envs/tg/lib/python3.8/site-packages/pygame/rect.cpython-38-x86_64-linux-gnu.so',
   'EXTENSION'),
  ('pygame.constants',
   '/home/lauraroma/miniconda3/envs/tg/lib/python3.8/site-packages/pygame/constants.cpython-38-x86_64-linux-gnu.so',
   'EXTENSION'),
  ('pygame.imageext',
   '/home/lauraroma/miniconda3/envs/tg/lib/python3.8/site-packages/pygame/imageext.cpython-38-x86_64-linux-gnu.so',
   'EXTENSION'),
  ('pygame.fastevent',
   '/home/lauraroma/miniconda3/envs/tg/lib/python3.8/site-packages/pygame/fastevent.cpython-38-x86_64-linux-gnu.so',
   'EXTENSION'),
  ('pygame.scrap',
   '/home/lauraroma/miniconda3/envs/tg/lib/python3.8/site-packages/pygame/scrap.cpython-38-x86_64-linux-gnu.so',
   'EXTENSION'),
  ('pygame.mixer',
   '/home/lauraroma/miniconda3/envs/tg/lib/python3.8/site-packages/pygame/mixer.cpython-38-x86_64-linux-gnu.so',
   'EXTENSION'),
  ('pygame.mixer_music',
   '/home/lauraroma/miniconda3/envs/tg/lib/python3.8/site-packages/pygame/mixer_music.cpython-38-x86_64-linux-gnu.so',
   'EXTENSION'),
  ('pygame.font',
   '/home/lauraroma/miniconda3/envs/tg/lib/python3.8/site-packages/pygame/font.cpython-38-x86_64-linux-gnu.so',
   'EXTENSION'),
  ('pygame._freetype',
   '/home/lauraroma/miniconda3/envs/tg/lib/python3.8/site-packages/pygame/_freetype.cpython-38-x86_64-linux-gnu.so',
   'EXTENSION'),
  ('pygame.transform',
   '/home/lauraroma/miniconda3/envs/tg/lib/python3.8/site-packages/pygame/transform.cpython-38-x86_64-linux-gnu.so',
   'EXTENSION'),
  ('pygame.time',
   '/home/lauraroma/miniconda3/envs/tg/lib/python3.8/site-packages/pygame/time.cpython-38-x86_64-linux-gnu.so',
   'EXTENSION'),
  ('pygame.overlay',
   '/home/lauraroma/miniconda3/envs/tg/lib/python3.8/site-packages/pygame/overlay.cpython-38-x86_64-linux-gnu.so',
   'EXTENSION'),
  ('pygame.pixelarray',
   '/home/lauraroma/miniconda3/envs/tg/lib/python3.8/site-packages/pygame/pixelarray.cpython-38-x86_64-linux-gnu.so',
   'EXTENSION'),
  ('pygame.mask',
   '/home/lauraroma/miniconda3/envs/tg/lib/python3.8/site-packages/pygame/mask.cpython-38-x86_64-linux-gnu.so',
   'EXTENSION'),
  ('pygame.surface',
   '/home/lauraroma/miniconda3/envs/tg/lib/python3.8/site-packages/pygame/surface.cpython-38-x86_64-linux-gnu.so',
   'EXTENSION'),
  ('pygame.pixelcopy',
   '/home/lauraroma/miniconda3/envs/tg/lib/python3.8/site-packages/pygame/pixelcopy.cpython-38-x86_64-linux-gnu.so',
   'EXTENSION'),
  ('pygame.mouse',
   '/home/lauraroma/miniconda3/envs/tg/lib/python3.8/site-packages/pygame/mouse.cpython-38-x86_64-linux-gnu.so',
   'EXTENSION'),
  ('pygame.key',
   '/home/lauraroma/miniconda3/envs/tg/lib/python3.8/site-packages/pygame/key.cpython-38-x86_64-linux-gnu.so',
   'EXTENSION'),
  ('pygame.joystick',
   '/home/lauraroma/miniconda3/envs/tg/lib/python3.8/site-packages/pygame/joystick.cpython-38-x86_64-linux-gnu.so',
   'EXTENSION'),
  ('pygame.image',
   '/home/lauraroma/miniconda3/envs/tg/lib/python3.8/site-packages/pygame/image.cpython-38-x86_64-linux-gnu.so',
   'EXTENSION'),
  ('pygame.event',
   '/home/lauraroma/miniconda3/envs/tg/lib/python3.8/site-packages/pygame/event.cpython-38-x86_64-linux-gnu.so',
   'EXTENSION'),
  ('pygame.draw',
   '/home/lauraroma/miniconda3/envs/tg/lib/python3.8/site-packages/pygame/draw.cpython-38-x86_64-linux-gnu.so',
   'EXTENSION'),
  ('pygame.display',
   '/home/lauraroma/miniconda3/envs/tg/lib/python3.8/site-packages/pygame/display.cpython-38-x86_64-linux-gnu.so',
   'EXTENSION'),
  ('pygame.cdrom',
   '/home/lauraroma/miniconda3/envs/tg/lib/python3.8/site-packages/pygame/cdrom.cpython-38-x86_64-linux-gnu.so',
   'EXTENSION'),
  ('pygame.math',
   '/home/lauraroma/miniconda3/envs/tg/lib/python3.8/site-packages/pygame/math.cpython-38-x86_64-linux-gnu.so',
   'EXTENSION'),
  ('pygame.bufferproxy',
   '/home/lauraroma/miniconda3/envs/tg/lib/python3.8/site-packages/pygame/bufferproxy.cpython-38-x86_64-linux-gnu.so',
   'EXTENSION'),
  ('pygame.surflock',
   '/home/lauraroma/miniconda3/envs/tg/lib/python3.8/site-packages/pygame/surflock.cpython-38-x86_64-linux-gnu.so',
   'EXTENSION'),
  ('pygame.rwobject',
   '/home/lauraroma/miniconda3/envs/tg/lib/python3.8/site-packages/pygame/rwobject.cpython-38-x86_64-linux-gnu.so',
   'EXTENSION'),
  ('pygame.base',
   '/home/lauraroma/miniconda3/envs/tg/lib/python3.8/site-packages/pygame/base.cpython-38-x86_64-linux-gnu.so',
   'EXTENSION'),
  ('libffi.so.7',
   '/home/lauraroma/miniconda3/envs/tg/lib/python3.8/lib-dynload/../../libffi.so.7',
   'BINARY'),
  ('libz.so.1',
   '/home/lauraroma/miniconda3/envs/tg/lib/python3.8/lib-dynload/../../libz.so.1',
   'BINARY'),
  ('libcrypto.so.1.1',
   '/home/lauraroma/miniconda3/envs/tg/lib/python3.8/lib-dynload/../../libcrypto.so.1.1',
   'BINARY'),
  ('libssl.so.1.1',
   '/home/lauraroma/miniconda3/envs/tg/lib/python3.8/lib-dynload/../../libssl.so.1.1',
   'BINARY'),
  ('libtcl8.6.so',
   '/home/lauraroma/miniconda3/envs/tg/lib/python3.8/lib-dynload/../../libtcl8.6.so',
   'BINARY'),
  ('libX11.so.6', '/lib/x86_64-linux-gnu/libX11.so.6', 'BINARY'),
  ('libbsd.so.0', '/lib/x86_64-linux-gnu/libbsd.so.0', 'BINARY'),
  ('libtk8.6.so',
   '/home/lauraroma/miniconda3/envs/tg/lib/python3.8/lib-dynload/../../libtk8.6.so',
   'BINARY'),
  ('libXau.so.6', '/lib/x86_64-linux-gnu/libXau.so.6', 'BINARY'),
  ('libXdmcp.so.6', '/lib/x86_64-linux-gnu/libXdmcp.so.6', 'BINARY'),
  ('liblzma.so.5',
   '/home/lauraroma/miniconda3/envs/tg/lib/python3.8/lib-dynload/../../liblzma.so.5',
   'BINARY'),
  ('libtinfow.so.6',
   '/home/lauraroma/miniconda3/envs/tg/lib/python3.8/lib-dynload/../.././libtinfow.so.6',
   'BINARY'),
  ('libreadline.so.8',
   '/home/lauraroma/miniconda3/envs/tg/lib/python3.8/lib-dynload/../../libreadline.so.8',
   'BINARY'),
  ('libpulse-simple.so.0',
   '/lib/x86_64-linux-gnu/libpulse-simple.so.0',
   'BINARY'),
  ('libwrap.so.0', '/lib/x86_64-linux-gnu/libwrap.so.0', 'BINARY'),
  ('libsndfile.so.1', '/lib/x86_64-linux-gnu/libsndfile.so.1', 'BINARY'),
  ('libsystemd.so.0', '/lib/x86_64-linux-gnu/libsystemd.so.0', 'BINARY'),
  ('libgpg-error.so.0', '/lib/x86_64-linux-gnu/libgpg-error.so.0', 'BINARY'),
  ('libSDL-1.2.so.0', '/lib/x86_64-linux-gnu/libSDL-1.2.so.0', 'BINARY'),
  ('libslang.so.2', '/lib/x86_64-linux-gnu/libslang.so.2', 'BINARY'),
  ('libcaca.so.0', '/lib/x86_64-linux-gnu/libcaca.so.0', 'BINARY'),
  ('libasyncns.so.0', '/lib/x86_64-linux-gnu/libasyncns.so.0', 'BINARY'),
  ('libdbus-1.so.3', '/lib/x86_64-linux-gnu/libdbus-1.so.3', 'BINARY'),
  ('libgcrypt.so.20', '/lib/x86_64-linux-gnu/libgcrypt.so.20', 'BINARY'),
  ('libtinfo.so.6',
   '/home/lauraroma/miniconda3/envs/tg/lib/libtinfo.so.6',
   'BINARY'),
  ('libpulse.so.0', '/lib/x86_64-linux-gnu/libpulse.so.0', 'BINARY'),
  ('liblz4.so.1', '/lib/x86_64-linux-gnu/liblz4.so.1', 'BINARY'),
  ('libFLAC.so.8', '/lib/x86_64-linux-gnu/libFLAC.so.8', 'BINARY'),
  ('libvorbis.so.0', '/lib/x86_64-linux-gnu/libvorbis.so.0', 'BINARY'),
  ('libogg.so.0', '/lib/x86_64-linux-gnu/libogg.so.0', 'BINARY'),
  ('libasound.so.2', '/lib/x86_64-linux-gnu/libasound.so.2', 'BINARY'),
  ('libncursesw.so.6',
   '/home/lauraroma/miniconda3/envs/tg/lib/libncursesw.so.6',
   'BINARY'),
  ('libvorbisenc.so.2', '/lib/x86_64-linux-gnu/libvorbisenc.so.2', 'BINARY'),
  ('libXext.so.6', '/lib/x86_64-linux-gnu/libXext.so.6', 'BINARY'),
  ('libpulsecommon-13.99.so',
   '/usr/lib/x86_64-linux-gnu/pulseaudio/libpulsecommon-13.99.so',
   'BINARY'),
  ('libSDL_image-1.2.so.0',
   '/lib/x86_64-linux-gnu/libSDL_image-1.2.so.0',
   'BINARY'),
  ('libtiff.so.5', '/lib/x86_64-linux-gnu/libtiff.so.5', 'BINARY'),
  ('libpng16.so.16', '/lib/x86_64-linux-gnu/libpng16.so.16', 'BINARY'),
  ('libjpeg.so.8', '/lib/x86_64-linux-gnu/libjpeg.so.8', 'BINARY'),
  ('libwebp.so.6', '/lib/x86_64-linux-gnu/libwebp.so.6', 'BINARY'),
  ('libjbig.so.0', '/lib/x86_64-linux-gnu/libjbig.so.0', 'BINARY'),
  ('libzstd.so.1', '/lib/x86_64-linux-gnu/libzstd.so.1', 'BINARY'),
  ('libSDL_mixer-1.2.so.0',
   '/lib/x86_64-linux-gnu/libSDL_mixer-1.2.so.0',
   'BINARY'),
  ('libglib-2.0.so.0', '/lib/x86_64-linux-gnu/libglib-2.0.so.0', 'BINARY'),
  ('libgobject-2.0.so.0',
   '/lib/x86_64-linux-gnu/libgobject-2.0.so.0',
   'BINARY'),
  ('libXrandr.so.2', '/lib/x86_64-linux-gnu/libXrandr.so.2', 'BINARY'),
  ('libwayland-egl.so.1',
   '/lib/x86_64-linux-gnu/libwayland-egl.so.1',
   'BINARY'),
  ('libgcc_s.so.1',
   '/home/lauraroma/miniconda3/envs/tg/lib/libgcc_s.so.1',
   'BINARY'),
  ('libXxf86vm.so.1', '/lib/x86_64-linux-gnu/libXxf86vm.so.1', 'BINARY'),
  ('libSDL2-2.0.so.0', '/lib/x86_64-linux-gnu/libSDL2-2.0.so.0', 'BINARY'),
  ('libXfixes.so.3', '/lib/x86_64-linux-gnu/libXfixes.so.3', 'BINARY'),
  ('libmad.so.0', '/lib/x86_64-linux-gnu/libmad.so.0', 'BINARY'),
  ('libXcursor.so.1', '/lib/x86_64-linux-gnu/libXcursor.so.1', 'BINARY'),
  ('libpcre.so.3', '/lib/x86_64-linux-gnu/libpcre.so.3', 'BINARY'),
  ('libXrender.so.1', '/lib/x86_64-linux-gnu/libXrender.so.1', 'BINARY'),
  ('libxkbcommon.so.0', '/lib/x86_64-linux-gnu/libxkbcommon.so.0', 'BINARY'),
  ('libsndio.so.7.0', '/lib/x86_64-linux-gnu/libsndio.so.7.0', 'BINARY'),
  ('libmikmod.so.3', '/lib/x86_64-linux-gnu/libmikmod.so.3', 'BINARY'),
  ('libgmodule-2.0.so.0',
   '/lib/x86_64-linux-gnu/libgmodule-2.0.so.0',
   'BINARY'),
  ('libjack.so.0', '/lib/x86_64-linux-gnu/libjack.so.0', 'BINARY'),
  ('libwayland-client.so.0',
   '/lib/x86_64-linux-gnu/libwayland-client.so.0',
   'BINARY'),
  ('libfluidsynth.so.2', '/lib/x86_64-linux-gnu/libfluidsynth.so.2', 'BINARY'),
  ('libXinerama.so.1', '/lib/x86_64-linux-gnu/libXinerama.so.1', 'BINARY'),
  ('libwayland-cursor.so.0',
   '/lib/x86_64-linux-gnu/libwayland-cursor.so.0',
   'BINARY'),
  ('libstdc++.so.6',
   '/home/lauraroma/miniconda3/envs/tg/lib/libstdc++.so.6',
   'BINARY'),
  ('libopenal.so.1', '/lib/x86_64-linux-gnu/libopenal.so.1', 'BINARY'),
  ('libXi.so.6', '/lib/x86_64-linux-gnu/libXi.so.6', 'BINARY'),
  ('libXss.so.1', '/lib/x86_64-linux-gnu/libXss.so.1', 'BINARY'),
  ('libvorbisfile.so.3', '/lib/x86_64-linux-gnu/libvorbisfile.so.3', 'BINARY'),
  ('libinstpatch-1.0.so.2',
   '/lib/x86_64-linux-gnu/libinstpatch-1.0.so.2',
   'BINARY'),
  ('libfreetype.so.6', '/lib/x86_64-linux-gnu/libfreetype.so.6', 'BINARY'),
  ('libSDL_ttf-2.0.so.0',
   '/lib/x86_64-linux-gnu/libSDL_ttf-2.0.so.0',
   'BINARY'),
  ('libpython3.8.so.1.0',
   '/home/lauraroma/miniconda3/envs/tg/lib/libpython3.8.so.1.0',
   'BINARY'),
  ('base_library.zip',
   '/media/lauraroma/0A8423BE06D94565/Trabajo de '
   'Grado/trabajo-de-grado/main/build/main/base_library.zip',
   'DATA'),
  ('tcl/msgs/es_py.msg',
   '/home/lauraroma/miniconda3/envs/tg/lib/tcl8.6/msgs/es_py.msg',
   'DATA'),
  ('tcl/encoding/euc-kr.enc',
   '/home/lauraroma/miniconda3/envs/tg/lib/tcl8.6/encoding/euc-kr.enc',
   'DATA'),
  ('tk/msgs/eo.msg',
   '/home/lauraroma/miniconda3/envs/tg/lib/tk8.6/msgs/eo.msg',
   'DATA'),
  ('tcl/msgs/en_au.msg',
   '/home/lauraroma/miniconda3/envs/tg/lib/tcl8.6/msgs/en_au.msg',
   'DATA'),
  ('tk/images/logo64.gif',
   '/home/lauraroma/miniconda3/envs/tg/lib/tk8.6/images/logo64.gif',
   'DATA'),
  ('tk/images/logoMed.gif',
   '/home/lauraroma/miniconda3/envs/tg/lib/tk8.6/images/logoMed.gif',
   'DATA'),
  ('tcl/msgs/es_uy.msg',
   '/home/lauraroma/miniconda3/envs/tg/lib/tcl8.6/msgs/es_uy.msg',
   'DATA'),
  ('tk/images/pwrdLogo150.gif',
   '/home/lauraroma/miniconda3/envs/tg/lib/tk8.6/images/pwrdLogo150.gif',
   'DATA'),
  ('tcl/encoding/shiftjis.enc',
   '/home/lauraroma/miniconda3/envs/tg/lib/tcl8.6/encoding/shiftjis.enc',
   'DATA'),
  ('tcl/encoding/iso8859-7.enc',
   '/home/lauraroma/miniconda3/envs/tg/lib/tcl8.6/encoding/iso8859-7.enc',
   'DATA'),
  ('tk/pkgIndex.tcl',
   '/home/lauraroma/miniconda3/envs/tg/lib/tk8.6/pkgIndex.tcl',
   'DATA'),
  ('tcl/encoding/cp1252.enc',
   '/home/lauraroma/miniconda3/envs/tg/lib/tcl8.6/encoding/cp1252.enc',
   'DATA'),
  ('tcl/encoding/iso8859-16.enc',
   '/home/lauraroma/miniconda3/envs/tg/lib/tcl8.6/encoding/iso8859-16.enc',
   'DATA'),
  ('tcl/msgs/it_ch.msg',
   '/home/lauraroma/miniconda3/envs/tg/lib/tcl8.6/msgs/it_ch.msg',
   'DATA'),
  ('tk/tkAppInit.c',
   '/home/lauraroma/miniconda3/envs/tg/lib/tk8.6/tkAppInit.c',
   'DATA'),
  ('tcl/msgs/el.msg',
   '/home/lauraroma/miniconda3/envs/tg/lib/tcl8.6/msgs/el.msg',
   'DATA'),
  ('tk/msgs/de.msg',
   '/home/lauraroma/miniconda3/envs/tg/lib/tk8.6/msgs/de.msg',
   'DATA'),
  ('tcl/msgs/eo.msg',
   '/home/lauraroma/miniconda3/envs/tg/lib/tcl8.6/msgs/eo.msg',
   'DATA'),
  ('tcl/msgs/ms_my.msg',
   '/home/lauraroma/miniconda3/envs/tg/lib/tcl8.6/msgs/ms_my.msg',
   'DATA'),
  ('tcl/msgs/gl_es.msg',
   '/home/lauraroma/miniconda3/envs/tg/lib/tcl8.6/msgs/gl_es.msg',
   'DATA'),
  ('tcl/msgs/ro.msg',
   '/home/lauraroma/miniconda3/envs/tg/lib/tcl8.6/msgs/ro.msg',
   'DATA'),
  ('tcl/msgs/de.msg',
   '/home/lauraroma/miniconda3/envs/tg/lib/tcl8.6/msgs/de.msg',
   'DATA'),
  ('tcl/encoding/iso8859-6.enc',
   '/home/lauraroma/miniconda3/envs/tg/lib/tcl8.6/encoding/iso8859-6.enc',
   'DATA'),
  ('tk/images/pwrdLogo175.gif',
   '/home/lauraroma/miniconda3/envs/tg/lib/tk8.6/images/pwrdLogo175.gif',
   'DATA'),
  ('tk/ttk/spinbox.tcl',
   '/home/lauraroma/miniconda3/envs/tg/lib/tk8.6/ttk/spinbox.tcl',
   'DATA'),
  ('tcl/msgs/en_sg.msg',
   '/home/lauraroma/miniconda3/envs/tg/lib/tcl8.6/msgs/en_sg.msg',
   'DATA'),
  ('tcl/msgs/es_hn.msg',
   '/home/lauraroma/miniconda3/envs/tg/lib/tcl8.6/msgs/es_hn.msg',
   'DATA'),
  ('tk/clrpick.tcl',
   '/home/lauraroma/miniconda3/envs/tg/lib/tk8.6/clrpick.tcl',
   'DATA'),
  ('tcl/msgs/ga_ie.msg',
   '/home/lauraroma/miniconda3/envs/tg/lib/tcl8.6/msgs/ga_ie.msg',
   'DATA'),
  ('tk/mkpsenc.tcl',
   '/home/lauraroma/miniconda3/envs/tg/lib/tk8.6/mkpsenc.tcl',
   'DATA'),
  ('tcl/msgs/ta_in.msg',
   '/home/lauraroma/miniconda3/envs/tg/lib/tcl8.6/msgs/ta_in.msg',
   'DATA'),
  ('tcl/msgs/id.msg',
   '/home/lauraroma/miniconda3/envs/tg/lib/tcl8.6/msgs/id.msg',
   'DATA'),
  ('tcl/msgs/fr_be.msg',
   '/home/lauraroma/miniconda3/envs/tg/lib/tcl8.6/msgs/fr_be.msg',
   'DATA'),
  ('tcl/msgs/es_sv.msg',
   '/home/lauraroma/miniconda3/envs/tg/lib/tcl8.6/msgs/es_sv.msg',
   'DATA'),
  ('tcl/msgs/nl.msg',
   '/home/lauraroma/miniconda3/envs/tg/lib/tcl8.6/msgs/nl.msg',
   'DATA'),
  ('tcl/msgs/en_ca.msg',
   '/home/lauraroma/miniconda3/envs/tg/lib/tcl8.6/msgs/en_ca.msg',
   'DATA'),
  ('tcl/msgs/es_pr.msg',
   '/home/lauraroma/miniconda3/envs/tg/lib/tcl8.6/msgs/es_pr.msg',
   'DATA'),
  ('tcl/msgs/hu.msg',
   '/home/lauraroma/miniconda3/envs/tg/lib/tcl8.6/msgs/hu.msg',
   'DATA'),
  ('tcl/msgs/sk.msg',
   '/home/lauraroma/miniconda3/envs/tg/lib/tcl8.6/msgs/sk.msg',
   'DATA'),
  ('tcl/encoding/macRomania.enc',
   '/home/lauraroma/miniconda3/envs/tg/lib/tcl8.6/encoding/macRomania.enc',
   'DATA'),
  ('tcl/clock.tcl',
   '/home/lauraroma/miniconda3/envs/tg/lib/tcl8.6/clock.tcl',
   'DATA'),
  ('tk/ttk/clamTheme.tcl',
   '/home/lauraroma/miniconda3/envs/tg/lib/tk8.6/ttk/clamTheme.tcl',
   'DATA'),
  ('tcl/msgs/kw.msg',
   '/home/lauraroma/miniconda3/envs/tg/lib/tcl8.6/msgs/kw.msg',
   'DATA'),
  ('tk/ttk/entry.tcl',
   '/home/lauraroma/miniconda3/envs/tg/lib/tk8.6/ttk/entry.tcl',
   'DATA'),
  ('tcl/msgs/fi.msg',
   '/home/lauraroma/miniconda3/envs/tg/lib/tcl8.6/msgs/fi.msg',
   'DATA'),
  ('tcl/msgs/es_pe.msg',
   '/home/lauraroma/miniconda3/envs/tg/lib/tcl8.6/msgs/es_pe.msg',
   'DATA'),
  ('tcl/msgs/et.msg',
   '/home/lauraroma/miniconda3/envs/tg/lib/tcl8.6/msgs/et.msg',
   'DATA'),
  ('tcl/encoding/jis0201.enc',
   '/home/lauraroma/miniconda3/envs/tg/lib/tcl8.6/encoding/jis0201.enc',
   'DATA'),
  ('tcl/encoding/cp864.enc',
   '/home/lauraroma/miniconda3/envs/tg/lib/tcl8.6/encoding/cp864.enc',
   'DATA'),
  ('tk/images/pwrdLogo.eps',
   '/home/lauraroma/miniconda3/envs/tg/lib/tk8.6/images/pwrdLogo.eps',
   'DATA'),
  ('tcl/encoding/cp936.enc',
   '/home/lauraroma/miniconda3/envs/tg/lib/tcl8.6/encoding/cp936.enc',
   'DATA'),
  ('tcl/msgs/sw.msg',
   '/home/lauraroma/miniconda3/envs/tg/lib/tcl8.6/msgs/sw.msg',
   'DATA'),
  ('lib2to3/Grammar.txt',
   '/home/lauraroma/miniconda3/envs/tg/lib/python3.8/lib2to3/Grammar.txt',
   'DATA'),
  ('tcl/msgs/es_bo.msg',
   '/home/lauraroma/miniconda3/envs/tg/lib/tcl8.6/msgs/es_bo.msg',
   'DATA'),
  ('tcl/msgs/de_at.msg',
   '/home/lauraroma/miniconda3/envs/tg/lib/tcl8.6/msgs/de_at.msg',
   'DATA'),
  ('tcl/msgs/id_id.msg',
   '/home/lauraroma/miniconda3/envs/tg/lib/tcl8.6/msgs/id_id.msg',
   'DATA'),
  ('lib2to3/Grammar3.8.3.final.0.pickle',
   '/home/lauraroma/miniconda3/envs/tg/lib/python3.8/lib2to3/Grammar3.8.3.final.0.pickle',
   'DATA'),
  ('tcl/encoding/cp949.enc',
   '/home/lauraroma/miniconda3/envs/tg/lib/tcl8.6/encoding/cp949.enc',
   'DATA'),
  ('tk/msgs/sv.msg',
   '/home/lauraroma/miniconda3/envs/tg/lib/tk8.6/msgs/sv.msg',
   'DATA'),
  ('tcl/msgs/fr_ch.msg',
   '/home/lauraroma/miniconda3/envs/tg/lib/tcl8.6/msgs/fr_ch.msg',
   'DATA'),
  ('tcl/encoding/dingbats.enc',
   '/home/lauraroma/miniconda3/envs/tg/lib/tcl8.6/encoding/dingbats.enc',
   'DATA'),
  ('tcl/auto.tcl',
   '/home/lauraroma/miniconda3/envs/tg/lib/tcl8.6/auto.tcl',
   'DATA'),
  ('tcl/encoding/iso8859-5.enc',
   '/home/lauraroma/miniconda3/envs/tg/lib/tcl8.6/encoding/iso8859-5.enc',
   'DATA'),
  ('tcl/msgs/es_ar.msg',
   '/home/lauraroma/miniconda3/envs/tg/lib/tcl8.6/msgs/es_ar.msg',
   'DATA'),
  ('tk/scale.tcl',
   '/home/lauraroma/miniconda3/envs/tg/lib/tk8.6/scale.tcl',
   'DATA'),
  ('tk/fontchooser.tcl',
   '/home/lauraroma/miniconda3/envs/tg/lib/tk8.6/fontchooser.tcl',
   'DATA'),
  ('tcl/msgs/ru.msg',
   '/home/lauraroma/miniconda3/envs/tg/lib/tcl8.6/msgs/ru.msg',
   'DATA'),
  ('lib2to3/PatternGrammar.txt',
   '/home/lauraroma/miniconda3/envs/tg/lib/python3.8/lib2to3/PatternGrammar.txt',
   'DATA'),
  ('tcl/encoding/gb2312-raw.enc',
   '/home/lauraroma/miniconda3/envs/tg/lib/tcl8.6/encoding/gb2312-raw.enc',
   'DATA'),
  ('tk/ttk/defaults.tcl',
   '/home/lauraroma/miniconda3/envs/tg/lib/tk8.6/ttk/defaults.tcl',
   'DATA'),
  ('tcl/msgs/en_ph.msg',
   '/home/lauraroma/miniconda3/envs/tg/lib/tcl8.6/msgs/en_ph.msg',
   'DATA'),
  ('tcl/parray.tcl',
   '/home/lauraroma/miniconda3/envs/tg/lib/tcl8.6/parray.tcl',
   'DATA'),
  ('tcl/encoding/gb12345.enc',
   '/home/lauraroma/miniconda3/envs/tg/lib/tcl8.6/encoding/gb12345.enc',
   'DATA'),
  ('tcl/msgs/zh_tw.msg',
   '/home/lauraroma/miniconda3/envs/tg/lib/tcl8.6/msgs/zh_tw.msg',
   'DATA'),
  ('tcl/encoding/cp866.enc',
   '/home/lauraroma/miniconda3/envs/tg/lib/tcl8.6/encoding/cp866.enc',
   'DATA'),
  ('tcl/encoding/iso8859-15.enc',
   '/home/lauraroma/miniconda3/envs/tg/lib/tcl8.6/encoding/iso8859-15.enc',
   'DATA'),
  ('tcl/msgs/en_za.msg',
   '/home/lauraroma/miniconda3/envs/tg/lib/tcl8.6/msgs/en_za.msg',
   'DATA'),
  ('tk/tclIndex',
   '/home/lauraroma/miniconda3/envs/tg/lib/tk8.6/tclIndex',
   'DATA'),
  ('tk/ttk/aquaTheme.tcl',
   '/home/lauraroma/miniconda3/envs/tg/lib/tk8.6/ttk/aquaTheme.tcl',
   'DATA'),
  ('tk/msgs/ru.msg',
   '/home/lauraroma/miniconda3/envs/tg/lib/tk8.6/msgs/ru.msg',
   'DATA'),
  ('tcl/msgs/en_gb.msg',
   '/home/lauraroma/miniconda3/envs/tg/lib/tcl8.6/msgs/en_gb.msg',
   'DATA'),
  ('tcl/init.tcl',
   '/home/lauraroma/miniconda3/envs/tg/lib/tcl8.6/init.tcl',
   'DATA'),
  ('tcl/msgs/gv_gb.msg',
   '/home/lauraroma/miniconda3/envs/tg/lib/tcl8.6/msgs/gv_gb.msg',
   'DATA'),
  ('tk/megawidget.tcl',
   '/home/lauraroma/miniconda3/envs/tg/lib/tk8.6/megawidget.tcl',
   'DATA'),
  ('tcl/msgs/be.msg',
   '/home/lauraroma/miniconda3/envs/tg/lib/tcl8.6/msgs/be.msg',
   'DATA'),
  ('tcl/msgs/fa_ir.msg',
   '/home/lauraroma/miniconda3/envs/tg/lib/tcl8.6/msgs/fa_ir.msg',
   'DATA'),
  ('tk/ttk/sizegrip.tcl',
   '/home/lauraroma/miniconda3/envs/tg/lib/tk8.6/ttk/sizegrip.tcl',
   'DATA'),
  ('tcl/msgs/he.msg',
   '/home/lauraroma/miniconda3/envs/tg/lib/tcl8.6/msgs/he.msg',
   'DATA'),
  ('tcl/msgs/en_in.msg',
   '/home/lauraroma/miniconda3/envs/tg/lib/tcl8.6/msgs/en_in.msg',
   'DATA'),
  ('tk/images/logoLarge.gif',
   '/home/lauraroma/miniconda3/envs/tg/lib/tk8.6/images/logoLarge.gif',
   'DATA'),
  ('tcl/encoding/euc-cn.enc',
   '/home/lauraroma/miniconda3/envs/tg/lib/tcl8.6/encoding/euc-cn.enc',
   'DATA'),
  ('tk/ttk/menubutton.tcl',
   '/home/lauraroma/miniconda3/envs/tg/lib/tk8.6/ttk/menubutton.tcl',
   'DATA'),
  ('tcl/msgs/af_za.msg',
   '/home/lauraroma/miniconda3/envs/tg/lib/tcl8.6/msgs/af_za.msg',
   'DATA'),
  ('tk/images/tai-ku.gif',
   '/home/lauraroma/miniconda3/envs/tg/lib/tk8.6/images/tai-ku.gif',
   'DATA'),
  ('tcl/msgs/sv.msg',
   '/home/lauraroma/miniconda3/envs/tg/lib/tcl8.6/msgs/sv.msg',
   'DATA'),
  ('tk/images/pwrdLogo200.gif',
   '/home/lauraroma/miniconda3/envs/tg/lib/tk8.6/images/pwrdLogo200.gif',
   'DATA'),
  ('tcl/encoding/macCentEuro.enc',
   '/home/lauraroma/miniconda3/envs/tg/lib/tcl8.6/encoding/macCentEuro.enc',
   'DATA'),
  ('tcl/encoding/cp862.enc',
   '/home/lauraroma/miniconda3/envs/tg/lib/tcl8.6/encoding/cp862.enc',
   'DATA'),
  ('tcl/encoding/macDingbats.enc',
   '/home/lauraroma/miniconda3/envs/tg/lib/tcl8.6/encoding/macDingbats.enc',
   'DATA'),
  ('tcl/encoding/cp737.enc',
   '/home/lauraroma/miniconda3/envs/tg/lib/tcl8.6/encoding/cp737.enc',
   'DATA'),
  ('tcl/encoding/koi8-u.enc',
   '/home/lauraroma/miniconda3/envs/tg/lib/tcl8.6/encoding/koi8-u.enc',
   'DATA'),
  ('tcl/msgs/ar_in.msg',
   '/home/lauraroma/miniconda3/envs/tg/lib/tcl8.6/msgs/ar_in.msg',
   'DATA'),
  ('tcl/encoding/cp861.enc',
   '/home/lauraroma/miniconda3/envs/tg/lib/tcl8.6/encoding/cp861.enc',
   'DATA'),
  ('tcl/encoding/ascii.enc',
   '/home/lauraroma/miniconda3/envs/tg/lib/tcl8.6/encoding/ascii.enc',
   'DATA'),
  ('tk/ttk/button.tcl',
   '/home/lauraroma/miniconda3/envs/tg/lib/tk8.6/ttk/button.tcl',
   'DATA'),
  ('tcl/msgs/eu_es.msg',
   '/home/lauraroma/miniconda3/envs/tg/lib/tcl8.6/msgs/eu_es.msg',
   'DATA'),
  ('tcl/encoding/iso8859-10.enc',
   '/home/lauraroma/miniconda3/envs/tg/lib/tcl8.6/encoding/iso8859-10.enc',
   'DATA'),
  ('tcl/msgs/kok_in.msg',
   '/home/lauraroma/miniconda3/envs/tg/lib/tcl8.6/msgs/kok_in.msg',
   'DATA'),
  ('tcl/encoding/macUkraine.enc',
   '/home/lauraroma/miniconda3/envs/tg/lib/tcl8.6/encoding/macUkraine.enc',
   'DATA'),
  ('lib/python3.8/config-3.8-x86_64-linux-gnu/Makefile',
   '/home/lauraroma/miniconda3/envs/tg/lib/python3.8/config-3.8-x86_64-linux-gnu/Makefile',
   'DATA'),
  ('tcl/msgs/es_pa.msg',
   '/home/lauraroma/miniconda3/envs/tg/lib/tcl8.6/msgs/es_pa.msg',
   'DATA'),
  ('tcl/package.tcl',
   '/home/lauraroma/miniconda3/envs/tg/lib/tcl8.6/package.tcl',
   'DATA'),
  ('tcl/msgs/en_nz.msg',
   '/home/lauraroma/miniconda3/envs/tg/lib/tcl8.6/msgs/en_nz.msg',
   'DATA'),
  ('tcl/msgs/kok.msg',
   '/home/lauraroma/miniconda3/envs/tg/lib/tcl8.6/msgs/kok.msg',
   'DATA'),
  ('tcl/msgs/zh_hk.msg',
   '/home/lauraroma/miniconda3/envs/tg/lib/tcl8.6/msgs/zh_hk.msg',
   'DATA'),
  ('tk/msgs/en.msg',
   '/home/lauraroma/miniconda3/envs/tg/lib/tk8.6/msgs/en.msg',
   'DATA'),
  ('tcl/msgs/eu.msg',
   '/home/lauraroma/miniconda3/envs/tg/lib/tcl8.6/msgs/eu.msg',
   'DATA'),
  ('tcl/msgs/es_gt.msg',
   '/home/lauraroma/miniconda3/envs/tg/lib/tcl8.6/msgs/es_gt.msg',
   'DATA'),
  ('tcl/msgs/af.msg',
   '/home/lauraroma/miniconda3/envs/tg/lib/tcl8.6/msgs/af.msg',
   'DATA'),
  ('tcl/msgs/da.msg',
   '/home/lauraroma/miniconda3/envs/tg/lib/tcl8.6/msgs/da.msg',
   'DATA'),
  ('tcl/msgs/pt.msg',
   '/home/lauraroma/miniconda3/envs/tg/lib/tcl8.6/msgs/pt.msg',
   'DATA'),
  ('tcl/encoding/iso2022-jp.enc',
   '/home/lauraroma/miniconda3/envs/tg/lib/tcl8.6/encoding/iso2022-jp.enc',
   'DATA'),
  ('tcl/history.tcl',
   '/home/lauraroma/miniconda3/envs/tg/lib/tcl8.6/history.tcl',
   'DATA'),
  ('tk/comdlg.tcl',
   '/home/lauraroma/miniconda3/envs/tg/lib/tk8.6/comdlg.tcl',
   'DATA'),
  ('tk/safetk.tcl',
   '/home/lauraroma/miniconda3/envs/tg/lib/tk8.6/safetk.tcl',
   'DATA'),
  ('tcl/msgs/ru_ua.msg',
   '/home/lauraroma/miniconda3/envs/tg/lib/tcl8.6/msgs/ru_ua.msg',
   'DATA'),
  ('tcl/msgs/en_be.msg',
   '/home/lauraroma/miniconda3/envs/tg/lib/tcl8.6/msgs/en_be.msg',
   'DATA'),
  ('lib2to3/tests/data/README',
   '/home/lauraroma/miniconda3/envs/tg/lib/python3.8/lib2to3/tests/data/README',
   'DATA'),
  ('tcl/msgs/ta.msg',
   '/home/lauraroma/miniconda3/envs/tg/lib/tcl8.6/msgs/ta.msg',
   'DATA'),
  ('tcl/msgs/ar_lb.msg',
   '/home/lauraroma/miniconda3/envs/tg/lib/tcl8.6/msgs/ar_lb.msg',
   'DATA'),
  ('tcl/encoding/cp1251.enc',
   '/home/lauraroma/miniconda3/envs/tg/lib/tcl8.6/encoding/cp1251.enc',
   'DATA'),
  ('tcl/msgs/es_ni.msg',
   '/home/lauraroma/miniconda3/envs/tg/lib/tcl8.6/msgs/es_ni.msg',
   'DATA'),
  ('tcl/msgs/en_ie.msg',
   '/home/lauraroma/miniconda3/envs/tg/lib/tcl8.6/msgs/en_ie.msg',
   'DATA'),
  ('tk/ttk/combobox.tcl',
   '/home/lauraroma/miniconda3/envs/tg/lib/tk8.6/ttk/combobox.tcl',
   'DATA'),
  ('tcl/encoding/jis0208.enc',
   '/home/lauraroma/miniconda3/envs/tg/lib/tcl8.6/encoding/jis0208.enc',
   'DATA'),
  ('tcl/msgs/fr_ca.msg',
   '/home/lauraroma/miniconda3/envs/tg/lib/tcl8.6/msgs/fr_ca.msg',
   'DATA'),
  ('tk/msgs/fr.msg',
   '/home/lauraroma/miniconda3/envs/tg/lib/tk8.6/msgs/fr.msg',
   'DATA'),
  ('tk/icons.tcl',
   '/home/lauraroma/miniconda3/envs/tg/lib/tk8.6/icons.tcl',
   'DATA'),
  ('tk/msgs/pl.msg',
   '/home/lauraroma/miniconda3/envs/tg/lib/tk8.6/msgs/pl.msg',
   'DATA'),
  ('tcl/msgs/en_hk.msg',
   '/home/lauraroma/miniconda3/envs/tg/lib/tcl8.6/msgs/en_hk.msg',
   'DATA'),
  ('tk/ttk/winTheme.tcl',
   '/home/lauraroma/miniconda3/envs/tg/lib/tk8.6/ttk/winTheme.tcl',
   'DATA'),
  ('tcl/encoding/iso8859-14.enc',
   '/home/lauraroma/miniconda3/envs/tg/lib/tcl8.6/encoding/iso8859-14.enc',
   'DATA'),
  ('tcl/msgs/pl.msg',
   '/home/lauraroma/miniconda3/envs/tg/lib/tcl8.6/msgs/pl.msg',
   'DATA'),
  ('tcl/msgs/sr.msg',
   '/home/lauraroma/miniconda3/envs/tg/lib/tcl8.6/msgs/sr.msg',
   'DATA'),
  ('tcl/msgs/ar.msg',
   '/home/lauraroma/miniconda3/envs/tg/lib/tcl8.6/msgs/ar.msg',
   'DATA'),
  ('tcl/encoding/cp932.enc',
   '/home/lauraroma/miniconda3/envs/tg/lib/tcl8.6/encoding/cp932.enc',
   'DATA'),
  ('tcl/msgs/es_do.msg',
   '/home/lauraroma/miniconda3/envs/tg/lib/tcl8.6/msgs/es_do.msg',
   'DATA'),
  ('tcl/msgs/ja.msg',
   '/home/lauraroma/miniconda3/envs/tg/lib/tcl8.6/msgs/ja.msg',
   'DATA'),
  ('tcl/msgs/ga.msg',
   '/home/lauraroma/miniconda3/envs/tg/lib/tcl8.6/msgs/ga.msg',
   'DATA'),
  ('tk/choosedir.tcl',
   '/home/lauraroma/miniconda3/envs/tg/lib/tk8.6/choosedir.tcl',
   'DATA'),
  ('tcl/msgs/ko_kr.msg',
   '/home/lauraroma/miniconda3/envs/tg/lib/tcl8.6/msgs/ko_kr.msg',
   'DATA'),
  ('tcl/msgs/bg.msg',
   '/home/lauraroma/miniconda3/envs/tg/lib/tcl8.6/msgs/bg.msg',
   'DATA'),
  ('tk/dialog.tcl',
   '/home/lauraroma/miniconda3/envs/tg/lib/tk8.6/dialog.tcl',
   'DATA'),
  ('tcl/encoding/iso8859-9.enc',
   '/home/lauraroma/miniconda3/envs/tg/lib/tcl8.6/encoding/iso8859-9.enc',
   'DATA'),
  ('tk/msgbox.tcl',
   '/home/lauraroma/miniconda3/envs/tg/lib/tk8.6/msgbox.tcl',
   'DATA'),
  ('tcl/encoding/cp950.enc',
   '/home/lauraroma/miniconda3/envs/tg/lib/tcl8.6/encoding/cp950.enc',
   'DATA'),
  ('tcl/msgs/ms.msg',
   '/home/lauraroma/miniconda3/envs/tg/lib/tcl8.6/msgs/ms.msg',
   'DATA'),
  ('tk/listbox.tcl',
   '/home/lauraroma/miniconda3/envs/tg/lib/tk8.6/listbox.tcl',
   'DATA'),
  ('tcl/encoding/cp1250.enc',
   '/home/lauraroma/miniconda3/envs/tg/lib/tcl8.6/encoding/cp1250.enc',
   'DATA'),
  ('tcl/encoding/gb1988.enc',
   '/home/lauraroma/miniconda3/envs/tg/lib/tcl8.6/encoding/gb1988.enc',
   'DATA'),
  ('tcl/msgs/bn_in.msg',
   '/home/lauraroma/miniconda3/envs/tg/lib/tcl8.6/msgs/bn_in.msg',
   'DATA'),
  ('tcl/msgs/ar_jo.msg',
   '/home/lauraroma/miniconda3/envs/tg/lib/tcl8.6/msgs/ar_jo.msg',
   'DATA'),
  ('tcl/encoding/cp869.enc',
   '/home/lauraroma/miniconda3/envs/tg/lib/tcl8.6/encoding/cp869.enc',
   'DATA'),
  ('tk/bgerror.tcl',
   '/home/lauraroma/miniconda3/envs/tg/lib/tk8.6/bgerror.tcl',
   'DATA'),
  ('tcl/encoding/cp1254.enc',
   '/home/lauraroma/miniconda3/envs/tg/lib/tcl8.6/encoding/cp1254.enc',
   'DATA'),
  ('tk/palette.tcl',
   '/home/lauraroma/miniconda3/envs/tg/lib/tk8.6/palette.tcl',
   'DATA'),
  ('tcl/encoding/macThai.enc',
   '/home/lauraroma/miniconda3/envs/tg/lib/tcl8.6/encoding/macThai.enc',
   'DATA'),
  ('tcl/msgs/lv.msg',
   '/home/lauraroma/miniconda3/envs/tg/lib/tcl8.6/msgs/lv.msg',
   'DATA'),
  ('tk/ttk/vistaTheme.tcl',
   '/home/lauraroma/miniconda3/envs/tg/lib/tk8.6/ttk/vistaTheme.tcl',
   'DATA'),
  ('tcl/encoding/cp1255.enc',
   '/home/lauraroma/miniconda3/envs/tg/lib/tcl8.6/encoding/cp1255.enc',
   'DATA'),
  ('tcl/msgs/en_zw.msg',
   '/home/lauraroma/miniconda3/envs/tg/lib/tcl8.6/msgs/en_zw.msg',
   'DATA'),
  ('tcl/encoding/ksc5601.enc',
   '/home/lauraroma/miniconda3/envs/tg/lib/tcl8.6/encoding/ksc5601.enc',
   'DATA'),
  ('tcl/encoding/macGreek.enc',
   '/home/lauraroma/miniconda3/envs/tg/lib/tcl8.6/encoding/macGreek.enc',
   'DATA'),
  ('tcl/encoding/iso2022.enc',
   '/home/lauraroma/miniconda3/envs/tg/lib/tcl8.6/encoding/iso2022.enc',
   'DATA'),
  ('tk/images/logo100.gif',
   '/home/lauraroma/miniconda3/envs/tg/lib/tk8.6/images/logo100.gif',
   'DATA'),
  ('tcl/msgs/th.msg',
   '/home/lauraroma/miniconda3/envs/tg/lib/tcl8.6/msgs/th.msg',
   'DATA'),
  ('tcl/encoding/cp874.enc',
   '/home/lauraroma/miniconda3/envs/tg/lib/tcl8.6/encoding/cp874.enc',
   'DATA'),
  ('tcl/encoding/ebcdic.enc',
   '/home/lauraroma/miniconda3/envs/tg/lib/tcl8.6/encoding/ebcdic.enc',
   'DATA'),
  ('tcl/encoding/cp857.enc',
   '/home/lauraroma/miniconda3/envs/tg/lib/tcl8.6/encoding/cp857.enc',
   'DATA'),
  ('tcl/msgs/pt_br.msg',
   '/home/lauraroma/miniconda3/envs/tg/lib/tcl8.6/msgs/pt_br.msg',
   'DATA'),
  ('tk/ttk/scale.tcl',
   '/home/lauraroma/miniconda3/envs/tg/lib/tk8.6/ttk/scale.tcl',
   'DATA'),
  ('tcl/msgs/ko.msg',
   '/home/lauraroma/miniconda3/envs/tg/lib/tcl8.6/msgs/ko.msg',
   'DATA'),
  ('tcl/tm.tcl',
   '/home/lauraroma/miniconda3/envs/tg/lib/tcl8.6/tm.tcl',
   'DATA'),
  ('tk/ttk/treeview.tcl',
   '/home/lauraroma/miniconda3/envs/tg/lib/tk8.6/ttk/treeview.tcl',
   'DATA'),
  ('tcl/encoding/macIceland.enc',
   '/home/lauraroma/miniconda3/envs/tg/lib/tcl8.6/encoding/macIceland.enc',
   'DATA'),
  ('tk/images/pwrdLogo100.gif',
   '/home/lauraroma/miniconda3/envs/tg/lib/tk8.6/images/pwrdLogo100.gif',
   'DATA'),
  ('tk/msgs/cs.msg',
   '/home/lauraroma/miniconda3/envs/tg/lib/tk8.6/msgs/cs.msg',
   'DATA'),
  ('tcl/encoding/iso8859-8.enc',
   '/home/lauraroma/miniconda3/envs/tg/lib/tcl8.6/encoding/iso8859-8.enc',
   'DATA'),
  ('tk/ttk/ttk.tcl',
   '/home/lauraroma/miniconda3/envs/tg/lib/tk8.6/ttk/ttk.tcl',
   'DATA'),
  ('tk/tearoff.tcl',
   '/home/lauraroma/miniconda3/envs/tg/lib/tk8.6/tearoff.tcl',
   'DATA'),
  ('tcl/msgs/en_bw.msg',
   '/home/lauraroma/miniconda3/envs/tg/lib/tcl8.6/msgs/en_bw.msg',
   'DATA'),
  ('tcl/msgs/fa.msg',
   '/home/lauraroma/miniconda3/envs/tg/lib/tcl8.6/msgs/fa.msg',
   'DATA'),
  ('tcl/word.tcl',
   '/home/lauraroma/miniconda3/envs/tg/lib/tcl8.6/word.tcl',
   'DATA'),
  ('tcl/encoding/koi8-r.enc',
   '/home/lauraroma/miniconda3/envs/tg/lib/tcl8.6/encoding/koi8-r.enc',
   'DATA'),
  ('tk/ttk/utils.tcl',
   '/home/lauraroma/miniconda3/envs/tg/lib/tk8.6/ttk/utils.tcl',
   'DATA'),
  ('tcl/encoding/big5.enc',
   '/home/lauraroma/miniconda3/envs/tg/lib/tcl8.6/encoding/big5.enc',
   'DATA'),
  ('tcl/msgs/sq.msg',
   '/home/lauraroma/miniconda3/envs/tg/lib/tcl8.6/msgs/sq.msg',
   'DATA'),
  ('tcl/msgs/gl.msg',
   '/home/lauraroma/miniconda3/envs/tg/lib/tcl8.6/msgs/gl.msg',
   'DATA'),
  ('tcl/msgs/is.msg',
   '/home/lauraroma/miniconda3/envs/tg/lib/tcl8.6/msgs/is.msg',
   'DATA'),
  ('tcl/msgs/lt.msg',
   '/home/lauraroma/miniconda3/envs/tg/lib/tcl8.6/msgs/lt.msg',
   'DATA'),
  ('tcl/http1.0/http.tcl',
   '/home/lauraroma/miniconda3/envs/tg/lib/tcl8.6/http1.0/http.tcl',
   'DATA'),
  ('tcl/encoding/cp1257.enc',
   '/home/lauraroma/miniconda3/envs/tg/lib/tcl8.6/encoding/cp1257.enc',
   'DATA'),
  ('tcl/msgs/es.msg',
   '/home/lauraroma/miniconda3/envs/tg/lib/tcl8.6/msgs/es.msg',
   'DATA'),
  ('tcl/msgs/sh.msg',
   '/home/lauraroma/miniconda3/envs/tg/lib/tcl8.6/msgs/sh.msg',
   'DATA'),
  ('tcl/encoding/iso8859-13.enc',
   '/home/lauraroma/miniconda3/envs/tg/lib/tcl8.6/encoding/iso8859-13.enc',
   'DATA'),
  ('tcl/msgs/bn.msg',
   '/home/lauraroma/miniconda3/envs/tg/lib/tcl8.6/msgs/bn.msg',
   'DATA'),
  ('tcl/encoding/cp1258.enc',
   '/home/lauraroma/miniconda3/envs/tg/lib/tcl8.6/encoding/cp1258.enc',
   'DATA'),
  ('tcl/msgs/nn.msg',
   '/home/lauraroma/miniconda3/envs/tg/lib/tcl8.6/msgs/nn.msg',
   'DATA'),
  ('tcl/msgs/kw_gb.msg',
   '/home/lauraroma/miniconda3/envs/tg/lib/tcl8.6/msgs/kw_gb.msg',
   'DATA'),
  ('tcl/msgs/fr.msg',
   '/home/lauraroma/miniconda3/envs/tg/lib/tcl8.6/msgs/fr.msg',
   'DATA'),
  ('tcl/msgs/tr.msg',
   '/home/lauraroma/miniconda3/envs/tg/lib/tcl8.6/msgs/tr.msg',
   'DATA'),
  ('tcl/encoding/iso8859-4.enc',
   '/home/lauraroma/miniconda3/envs/tg/lib/tcl8.6/encoding/iso8859-4.enc',
   'DATA'),
  ('tk/msgs/es.msg',
   '/home/lauraroma/miniconda3/envs/tg/lib/tk8.6/msgs/es.msg',
   'DATA'),
  ('tcl/encoding/iso2022-kr.enc',
   '/home/lauraroma/miniconda3/envs/tg/lib/tcl8.6/encoding/iso2022-kr.enc',
   'DATA'),
  ('tk/button.tcl',
   '/home/lauraroma/miniconda3/envs/tg/lib/tk8.6/button.tcl',
   'DATA'),
  ('tcl/msgs/zh_sg.msg',
   '/home/lauraroma/miniconda3/envs/tg/lib/tcl8.6/msgs/zh_sg.msg',
   'DATA'),
  ('tcl/encoding/macJapan.enc',
   '/home/lauraroma/miniconda3/envs/tg/lib/tcl8.6/encoding/macJapan.enc',
   'DATA'),
  ('tcl/encoding/macRoman.enc',
   '/home/lauraroma/miniconda3/envs/tg/lib/tcl8.6/encoding/macRoman.enc',
   'DATA'),
  ('tcl/msgs/cs.msg',
   '/home/lauraroma/miniconda3/envs/tg/lib/tcl8.6/msgs/cs.msg',
   'DATA'),
  ('tk/xmfbox.tcl',
   '/home/lauraroma/miniconda3/envs/tg/lib/tk8.6/xmfbox.tcl',
   'DATA'),
  ('tcl/tclAppInit.c',
   '/home/lauraroma/miniconda3/envs/tg/lib/tcl8.6/tclAppInit.c',
   'DATA'),
  ('tcl/msgs/ca.msg',
   '/home/lauraroma/miniconda3/envs/tg/lib/tcl8.6/msgs/ca.msg',
   'DATA'),
  ('tk/msgs/hu.msg',
   '/home/lauraroma/miniconda3/envs/tg/lib/tk8.6/msgs/hu.msg',
   'DATA'),
  ('tk/ttk/classicTheme.tcl',
   '/home/lauraroma/miniconda3/envs/tg/lib/tk8.6/ttk/classicTheme.tcl',
   'DATA'),
  ('tcl/msgs/nb.msg',
   '/home/lauraroma/miniconda3/envs/tg/lib/tcl8.6/msgs/nb.msg',
   'DATA'),
  ('tcl/msgs/es_ec.msg',
   '/home/lauraroma/miniconda3/envs/tg/lib/tcl8.6/msgs/es_ec.msg',
   'DATA'),
  ('tk/tkfbox.tcl',
   '/home/lauraroma/miniconda3/envs/tg/lib/tk8.6/tkfbox.tcl',
   'DATA'),
  ('tcl/encoding/tis-620.enc',
   '/home/lauraroma/miniconda3/envs/tg/lib/tcl8.6/encoding/tis-620.enc',
   'DATA'),
  ('tk/images/logo.eps',
   '/home/lauraroma/miniconda3/envs/tg/lib/tk8.6/images/logo.eps',
   'DATA'),
  ('tcl/msgs/zh.msg',
   '/home/lauraroma/miniconda3/envs/tg/lib/tcl8.6/msgs/zh.msg',
   'DATA'),
  ('tcl/encoding/iso8859-1.enc',
   '/home/lauraroma/miniconda3/envs/tg/lib/tcl8.6/encoding/iso8859-1.enc',
   'DATA'),
  ('tcl/msgs/it.msg',
   '/home/lauraroma/miniconda3/envs/tg/lib/tcl8.6/msgs/it.msg',
   'DATA'),
  ('tk/iconlist.tcl',
   '/home/lauraroma/miniconda3/envs/tg/lib/tk8.6/iconlist.tcl',
   'DATA'),
  ('tk/images/README',
   '/home/lauraroma/miniconda3/envs/tg/lib/tk8.6/images/README',
   'DATA'),
  ('tcl/msgs/mr_in.msg',
   '/home/lauraroma/miniconda3/envs/tg/lib/tcl8.6/msgs/mr_in.msg',
   'DATA'),
  ('tk/entry.tcl',
   '/home/lauraroma/miniconda3/envs/tg/lib/tk8.6/entry.tcl',
   'DATA'),
  ('tcl/msgs/de_be.msg',
   '/home/lauraroma/miniconda3/envs/tg/lib/tcl8.6/msgs/de_be.msg',
   'DATA'),
  ('tcl/msgs/fa_in.msg',
   '/home/lauraroma/miniconda3/envs/tg/lib/tcl8.6/msgs/fa_in.msg',
   'DATA'),
  ('tcl/msgs/hi_in.msg',
   '/home/lauraroma/miniconda3/envs/tg/lib/tcl8.6/msgs/hi_in.msg',
   'DATA'),
  ('tcl/encoding/jis0212.enc',
   '/home/lauraroma/miniconda3/envs/tg/lib/tcl8.6/encoding/jis0212.enc',
   'DATA'),
  ('tcl/encoding/symbol.enc',
   '/home/lauraroma/miniconda3/envs/tg/lib/tcl8.6/encoding/symbol.enc',
   'DATA'),
  ('tk/msgs/el.msg',
   '/home/lauraroma/miniconda3/envs/tg/lib/tk8.6/msgs/el.msg',
   'DATA'),
  ('tk/images/pwrdLogo75.gif',
   '/home/lauraroma/miniconda3/envs/tg/lib/tk8.6/images/pwrdLogo75.gif',
   'DATA'),
  ('tk/ttk/fonts.tcl',
   '/home/lauraroma/miniconda3/envs/tg/lib/tk8.6/ttk/fonts.tcl',
   'DATA'),
  ('tk/ttk/xpTheme.tcl',
   '/home/lauraroma/miniconda3/envs/tg/lib/tk8.6/ttk/xpTheme.tcl',
   'DATA'),
  ('tk/ttk/cursors.tcl',
   '/home/lauraroma/miniconda3/envs/tg/lib/tk8.6/ttk/cursors.tcl',
   'DATA'),
  ('tk/unsupported.tcl',
   '/home/lauraroma/miniconda3/envs/tg/lib/tk8.6/unsupported.tcl',
   'DATA'),
  ('tcl/encoding/euc-jp.enc',
   '/home/lauraroma/miniconda3/envs/tg/lib/tcl8.6/encoding/euc-jp.enc',
   'DATA'),
  ('tcl/msgs/es_cl.msg',
   '/home/lauraroma/miniconda3/envs/tg/lib/tcl8.6/msgs/es_cl.msg',
   'DATA'),
  ('tcl/encoding/cp1253.enc',
   '/home/lauraroma/miniconda3/envs/tg/lib/tcl8.6/encoding/cp1253.enc',
   'DATA'),
  ('tk/console.tcl',
   '/home/lauraroma/miniconda3/envs/tg/lib/tk8.6/console.tcl',
   'DATA'),
  ('tk/ttk/scrollbar.tcl',
   '/home/lauraroma/miniconda3/envs/tg/lib/tk8.6/ttk/scrollbar.tcl',
   'DATA'),
  ('tk/msgs/it.msg',
   '/home/lauraroma/miniconda3/envs/tg/lib/tk8.6/msgs/it.msg',
   'DATA'),
  ('tk/menu.tcl',
   '/home/lauraroma/miniconda3/envs/tg/lib/tk8.6/menu.tcl',
   'DATA'),
  ('tk/spinbox.tcl',
   '/home/lauraroma/miniconda3/envs/tg/lib/tk8.6/spinbox.tcl',
   'DATA'),
  ('include/python3.8/pyconfig.h',
   '/home/lauraroma/miniconda3/envs/tg/include/python3.8/pyconfig.h',
   'DATA'),
  ('tcl/msgs/hr.msg',
   '/home/lauraroma/miniconda3/envs/tg/lib/tcl8.6/msgs/hr.msg',
   'DATA'),
  ('tk/msgs/pt.msg',
   '/home/lauraroma/miniconda3/envs/tg/lib/tk8.6/msgs/pt.msg',
   'DATA'),
  ('tcl/encoding/cp1256.enc',
   '/home/lauraroma/miniconda3/envs/tg/lib/tcl8.6/encoding/cp1256.enc',
   'DATA'),
  ('tcl/encoding/macTurkish.enc',
   '/home/lauraroma/miniconda3/envs/tg/lib/tcl8.6/encoding/macTurkish.enc',
   'DATA'),
  ('tk/panedwindow.tcl',
   '/home/lauraroma/miniconda3/envs/tg/lib/tk8.6/panedwindow.tcl',
   'DATA'),
  ('tcl/encoding/gb2312.enc',
   '/home/lauraroma/miniconda3/envs/tg/lib/tcl8.6/encoding/gb2312.enc',
   'DATA'),
  ('tk/msgs/en_gb.msg',
   '/home/lauraroma/miniconda3/envs/tg/lib/tk8.6/msgs/en_gb.msg',
   'DATA'),
  ('tcl/encoding/cp775.enc',
   '/home/lauraroma/miniconda3/envs/tg/lib/tcl8.6/encoding/cp775.enc',
   'DATA'),
  ('tcl/http1.0/pkgIndex.tcl',
   '/home/lauraroma/miniconda3/envs/tg/lib/tcl8.6/http1.0/pkgIndex.tcl',
   'DATA'),
  ('tcl/msgs/gv.msg',
   '/home/lauraroma/miniconda3/envs/tg/lib/tcl8.6/msgs/gv.msg',
   'DATA'),
  ('tcl/encoding/cp865.enc',
   '/home/lauraroma/miniconda3/envs/tg/lib/tcl8.6/encoding/cp865.enc',
   'DATA'),
  ('tcl/encoding/cp850.enc',
   '/home/lauraroma/miniconda3/envs/tg/lib/tcl8.6/encoding/cp850.enc',
   'DATA'),
  ('tcl/msgs/es_ve.msg',
   '/home/lauraroma/miniconda3/envs/tg/lib/tcl8.6/msgs/es_ve.msg',
   'DATA'),
  ('tcl/msgs/te_in.msg',
   '/home/lauraroma/miniconda3/envs/tg/lib/tcl8.6/msgs/te_in.msg',
   'DATA'),
  ('tk/optMenu.tcl',
   '/home/lauraroma/miniconda3/envs/tg/lib/tk8.6/optMenu.tcl',
   'DATA'),
  ('tcl/msgs/fo_fo.msg',
   '/home/lauraroma/miniconda3/envs/tg/lib/tcl8.6/msgs/fo_fo.msg',
   'DATA'),
  ('tcl/encoding/cp863.enc',
   '/home/lauraroma/miniconda3/envs/tg/lib/tcl8.6/encoding/cp863.enc',
   'DATA'),
  ('tcl/encoding/cp860.enc',
   '/home/lauraroma/miniconda3/envs/tg/lib/tcl8.6/encoding/cp860.enc',
   'DATA'),
  ('tk/text.tcl',
   '/home/lauraroma/miniconda3/envs/tg/lib/tk8.6/text.tcl',
   'DATA'),
  ('tcl/opt0.4/pkgIndex.tcl',
   '/home/lauraroma/miniconda3/envs/tg/lib/tcl8.6/opt0.4/pkgIndex.tcl',
   'DATA'),
  ('tcl/msgs/hi.msg',
   '/home/lauraroma/miniconda3/envs/tg/lib/tcl8.6/msgs/hi.msg',
   'DATA'),
  ('tcl/encoding/iso8859-2.enc',
   '/home/lauraroma/miniconda3/envs/tg/lib/tcl8.6/encoding/iso8859-2.enc',
   'DATA'),
  ('tcl/msgs/mt.msg',
   '/home/lauraroma/miniconda3/envs/tg/lib/tcl8.6/msgs/mt.msg',
   'DATA'),
  ('tcl/msgs/es_cr.msg',
   '/home/lauraroma/miniconda3/envs/tg/lib/tcl8.6/msgs/es_cr.msg',
   'DATA'),
  ('tk/focus.tcl',
   '/home/lauraroma/miniconda3/envs/tg/lib/tk8.6/focus.tcl',
   'DATA'),
  ('tcl/encoding/cp437.enc',
   '/home/lauraroma/miniconda3/envs/tg/lib/tcl8.6/encoding/cp437.enc',
   'DATA'),
  ('tk/ttk/altTheme.tcl',
   '/home/lauraroma/miniconda3/envs/tg/lib/tk8.6/ttk/altTheme.tcl',
   'DATA'),
  ('tk/tk.tcl', '/home/lauraroma/miniconda3/envs/tg/lib/tk8.6/tk.tcl', 'DATA'),
  ('tk/ttk/progress.tcl',
   '/home/lauraroma/miniconda3/envs/tg/lib/tk8.6/ttk/progress.tcl',
   'DATA'),
  ('tcl/msgs/mr.msg',
   '/home/lauraroma/miniconda3/envs/tg/lib/tcl8.6/msgs/mr.msg',
   'DATA'),
  ('tk/obsolete.tcl',
   '/home/lauraroma/miniconda3/envs/tg/lib/tk8.6/obsolete.tcl',
   'DATA'),
  ('tcl/msgs/vi.msg',
   '/home/lauraroma/miniconda3/envs/tg/lib/tcl8.6/msgs/vi.msg',
   'DATA'),
  ('tcl/encoding/macCroatian.enc',
   '/home/lauraroma/miniconda3/envs/tg/lib/tcl8.6/encoding/macCroatian.enc',
   'DATA'),
  ('tk/ttk/notebook.tcl',
   '/home/lauraroma/miniconda3/envs/tg/lib/tk8.6/ttk/notebook.tcl',
   'DATA'),
  ('tcl/encoding/cp855.enc',
   '/home/lauraroma/miniconda3/envs/tg/lib/tcl8.6/encoding/cp855.enc',
   'DATA'),
  ('tcl/msgs/zh_cn.msg',
   '/home/lauraroma/miniconda3/envs/tg/lib/tcl8.6/msgs/zh_cn.msg',
   'DATA'),
  ('tcl/tclIndex',
   '/home/lauraroma/miniconda3/envs/tg/lib/tcl8.6/tclIndex',
   'DATA'),
  ('tcl/msgs/nl_be.msg',
   '/home/lauraroma/miniconda3/envs/tg/lib/tcl8.6/msgs/nl_be.msg',
   'DATA'),
  ('tcl/opt0.4/optparse.tcl',
   '/home/lauraroma/miniconda3/envs/tg/lib/tcl8.6/opt0.4/optparse.tcl',
   'DATA'),
  ('tcl/encoding/macCyrillic.enc',
   '/home/lauraroma/miniconda3/envs/tg/lib/tcl8.6/encoding/macCyrillic.enc',
   'DATA'),
  ('tk/ttk/panedwindow.tcl',
   '/home/lauraroma/miniconda3/envs/tg/lib/tk8.6/ttk/panedwindow.tcl',
   'DATA'),
  ('tcl/msgs/uk.msg',
   '/home/lauraroma/miniconda3/envs/tg/lib/tcl8.6/msgs/uk.msg',
   'DATA'),
  ('tcl/msgs/mk.msg',
   '/home/lauraroma/miniconda3/envs/tg/lib/tcl8.6/msgs/mk.msg',
   'DATA'),
  ('tcl/msgs/fo.msg',
   '/home/lauraroma/miniconda3/envs/tg/lib/tcl8.6/msgs/fo.msg',
   'DATA'),
  ('tcl/encoding/cp852.enc',
   '/home/lauraroma/miniconda3/envs/tg/lib/tcl8.6/encoding/cp852.enc',
   'DATA'),
  ('tcl/msgs/ar_sy.msg',
   '/home/lauraroma/miniconda3/envs/tg/lib/tcl8.6/msgs/ar_sy.msg',
   'DATA'),
  ('lib2to3/PatternGrammar3.8.3.final.0.pickle',
   '/home/lauraroma/miniconda3/envs/tg/lib/python3.8/lib2to3/PatternGrammar3.8.3.final.0.pickle',
   'DATA'),
  ('tk/msgs/nl.msg',
   '/home/lauraroma/miniconda3/envs/tg/lib/tk8.6/msgs/nl.msg',
   'DATA'),
  ('tk/msgs/da.msg',
   '/home/lauraroma/miniconda3/envs/tg/lib/tk8.6/msgs/da.msg',
   'DATA'),
  ('tcl/msgs/sl.msg',
   '/home/lauraroma/miniconda3/envs/tg/lib/tcl8.6/msgs/sl.msg',
   'DATA'),
  ('tcl/msgs/kl_gl.msg',
   '/home/lauraroma/miniconda3/envs/tg/lib/tcl8.6/msgs/kl_gl.msg',
   'DATA'),
  ('tcl/msgs/es_co.msg',
   '/home/lauraroma/miniconda3/envs/tg/lib/tcl8.6/msgs/es_co.msg',
   'DATA'),
  ('tcl/encoding/iso8859-3.enc',
   '/home/lauraroma/miniconda3/envs/tg/lib/tcl8.6/encoding/iso8859-3.enc',
   'DATA'),
  ('tcl/msgs/kl.msg',
   '/home/lauraroma/miniconda3/envs/tg/lib/tcl8.6/msgs/kl.msg',
   'DATA'),
  ('tcl/msgs/te.msg',
   '/home/lauraroma/miniconda3/envs/tg/lib/tcl8.6/msgs/te.msg',
   'DATA'),
  ('tk/scrlbar.tcl',
   '/home/lauraroma/miniconda3/envs/tg/lib/tk8.6/scrlbar.tcl',
   'DATA'),
  ('tcl/safe.tcl',
   '/home/lauraroma/miniconda3/envs/tg/lib/tcl8.6/safe.tcl',
   'DATA'),
  ('tcl/msgs/es_mx.msg',
   '/home/lauraroma/miniconda3/envs/tg/lib/tcl8.6/msgs/es_mx.msg',
   'DATA'),
  ('resources/mapas/Ira-agrupamiento-aislamientoM.png',
   'resources/mapas/Ira-agrupamiento-aislamientoM.png',
   'DATA'),
  ('resources/mapas/Miedo-panico-comida.png',
   'resources/mapas/Miedo-panico-comida.png',
   'DATA'),
  ('resources/mapas/Esperanza-panico-comida.png',
   'resources/mapas/Esperanza-panico-comida.png',
   'DATA'),
  ('resources/imagenes/configuracion/btn-cargar.png',
   'resources/imagenes/configuracion/btn-cargar.png',
   'DATA'),
  ('resources/mapas/Ira-panico-comida.png',
   'resources/mapas/Ira-panico-comida.png',
   'DATA'),
  ('resources/imagenes/simulacion/pause.png',
   'resources/imagenes/simulacion/pause.png',
   'DATA'),
  ('resources/mapas/Miedo-panico-depredadorM.png',
   'resources/mapas/Miedo-panico-depredadorM.png',
   'DATA'),
  ('resources/mapas/Feliz-agrupamientoM.png',
   'resources/mapas/Feliz-agrupamientoM.png',
   'DATA'),
  ('resources/imagenes/ingresar-parametros/input-check.png',
   'resources/imagenes/ingresar-parametros/input-check.png',
   'DATA'),
  ('resources/imagenes/ingresar-parametros/Panel-depredador.png',
   'resources/imagenes/ingresar-parametros/Panel-depredador.png',
   'DATA'),
  ('resources/fuentes/Roboto-Bold.ttf',
   'resources/fuentes/Roboto-Bold.ttf',
   'DATA'),
  ('resources/mapas/Feliz-panico-comida.png',
   'resources/mapas/Feliz-panico-comida.png',
   'DATA'),
  ('resources/imagenes/ingresar-parametros/btn-next.png',
   'resources/imagenes/ingresar-parametros/btn-next.png',
   'DATA'),
  ('resources/mapas/Feliz-desplazamiento-tipo1M.png',
   'resources/mapas/Feliz-desplazamiento-tipo1M.png',
   'DATA'),
  ('resources/imagenes/univalle.jpg',
   'resources/imagenes/univalle.jpg',
   'DATA'),
  ('resources/imagenes/configuracion/btn-digitar-hoover.png',
   'resources/imagenes/configuracion/btn-digitar-hoover.png',
   'DATA'),
  ('resources/imagenes/simulacion/aumentar.png',
   'resources/imagenes/simulacion/aumentar.png',
   'DATA'),
  ('resources/mapas/Ira-desplazamiento-tipo2.png',
   'resources/mapas/Ira-desplazamiento-tipo2.png',
   'DATA'),
  ('resources/mapas/Ira-panico-depredador.png',
   'resources/mapas/Ira-panico-depredador.png',
   'DATA'),
  ('resources/imagenes/simulacion/play-hoover.png',
   'resources/imagenes/simulacion/play-hoover.png',
   'DATA'),
  ('resources/mapas/Miedo-agrupamiento.png',
   'resources/mapas/Miedo-agrupamiento.png',
   'DATA'),
  ('resources/mapas/Ira-agrupamiento.png',
   'resources/mapas/Ira-agrupamiento.png',
   'DATA'),
  ('resources/mapas/Esperanza-agrupamiento-aislamiento.png',
   'resources/mapas/Esperanza-agrupamiento-aislamiento.png',
   'DATA'),
  ('resources/mapas/Miedo-panico-comidaM.png',
   'resources/mapas/Miedo-panico-comidaM.png',
   'DATA'),
  ('resources/imagenes/ingresar-parametros/input-able.png',
   'resources/imagenes/ingresar-parametros/input-able.png',
   'DATA'),
  ('resources/mapas/Ira-panico-depredadorM.png',
   'resources/mapas/Ira-panico-depredadorM.png',
   'DATA'),
  ('resources/imagenes/ingresar-parametros/btn-next-hoover.png',
   'resources/imagenes/ingresar-parametros/btn-next-hoover.png',
   'DATA'),
  ('resources/fuentes/cronometro.ttf',
   'resources/fuentes/cronometro.ttf',
   'DATA'),
  ('resources/imagenes/simulacion/pause-hoover.png',
   'resources/imagenes/simulacion/pause-hoover.png',
   'DATA'),
  ('resources/mapas/Esperanza-desplazamiento-tipo1.png',
   'resources/mapas/Esperanza-desplazamiento-tipo1.png',
   'DATA'),
  ('resources/mapas/Feliz-agrupamiento-aislamiento.png',
   'resources/mapas/Feliz-agrupamiento-aislamiento.png',
   'DATA'),
  ('resources/mapas/water.png', 'resources/mapas/water.png', 'DATA'),
  ('resources/mapas/Feliz-desplazamiento-tipo1.png',
   'resources/mapas/Feliz-desplazamiento-tipo1.png',
   'DATA'),
  ('resources/imagenes/configuracion/btn-digitar.png',
   'resources/imagenes/configuracion/btn-digitar.png',
   'DATA'),
  ('resources/imagenes/ingresar-parametros/Panel-individuo.png',
   'resources/imagenes/ingresar-parametros/Panel-individuo.png',
   'DATA'),
  ('resources/mapas/Ira-desplazamiento-tipo1.png',
   'resources/mapas/Ira-desplazamiento-tipo1.png',
   'DATA'),
  ('resources/imagenes/inicio/btn-next-hoover.png',
   'resources/imagenes/inicio/btn-next-hoover.png',
   'DATA'),
  ('resources/mapas/Esperanza-panico-depredador.png',
   'resources/mapas/Esperanza-panico-depredador.png',
   'DATA'),
  ('resources/fuentes/titulo.ttf', 'resources/fuentes/titulo.ttf', 'DATA'),
  ('resources/fuentes/Roboto-Regular.ttf',
   'resources/fuentes/Roboto-Regular.ttf',
   'DATA'),
  ('resources/imagenes/ingresar-parametros/Panel-alimentacion.png',
   'resources/imagenes/ingresar-parametros/Panel-alimentacion.png',
   'DATA'),
  ('resources/mapas/Feliz-desplazamiento-tipo2.png',
   'resources/mapas/Feliz-desplazamiento-tipo2.png',
   'DATA'),
  ('resources/imagenes/simulacion/detener.png',
   'resources/imagenes/simulacion/detener.png',
   'DATA'),
  ('resources/mapas/Miedo-desplazamiento-tipo2M.png',
   'resources/mapas/Miedo-desplazamiento-tipo2M.png',
   'DATA'),
  ('resources/mapas/Feliz-panico-comidaM.png',
   'resources/mapas/Feliz-panico-comidaM.png',
   'DATA'),
  ('resources/imagenes/simulacion/reiniciar.png',
   'resources/imagenes/simulacion/reiniciar.png',
   'DATA'),
  ('resources/imagenes/simulacion/play.png',
   'resources/imagenes/simulacion/play.png',
   'DATA'),
  ('resources/imagenes/inicio/inicio.png',
   'resources/imagenes/inicio/inicio.png',
   'DATA'),
  ('resources/mapas/grass.png', 'resources/mapas/grass.png', 'DATA'),
  ('resources/fuentes/Signatra.ttf', 'resources/fuentes/Signatra.ttf', 'DATA'),
  ('resources/mapas/Esperanza-desplazamiento-tipo2M.png',
   'resources/mapas/Esperanza-desplazamiento-tipo2M.png',
   'DATA'),
  ('resources/mapas/Feliz-desplazamiento-tipo2M.png',
   'resources/mapas/Feliz-desplazamiento-tipo2M.png',
   'DATA'),
  ('resources/mapas/explorador.png', 'resources/mapas/explorador.png', 'DATA'),
  ('resources/mapas/Ira-agrupamientoM.png',
   'resources/mapas/Ira-agrupamientoM.png',
   'DATA'),
  ('resources/mapas/Feliz-agrupamiento.png',
   'resources/mapas/Feliz-agrupamiento.png',
   'DATA'),
  ('resources/mapas/Miedo-agrupamientoM.png',
   'resources/mapas/Miedo-agrupamientoM.png',
   'DATA'),
  ('resources/mapas/Miedo-desplazamiento-tipo1M.png',
   'resources/mapas/Miedo-desplazamiento-tipo1M.png',
   'DATA'),
  ('resources/imagenes/configuracion/Configuracion1.png',
   'resources/imagenes/configuracion/Configuracion1.png',
   'DATA'),
  ('resources/imagenes/simulacion/aumentar-hoover.png',
   'resources/imagenes/simulacion/aumentar-hoover.png',
   'DATA'),
  ('resources/mapas/Esperanza-agrupamientoM.png',
   'resources/mapas/Esperanza-agrupamientoM.png',
   'DATA'),
  ('resources/mapas/Feliz-agrupamiento-aislamientoM.png',
   'resources/mapas/Feliz-agrupamiento-aislamientoM.png',
   'DATA'),
  ('resources/mapas/Esperanza-panico-comidaM.png',
   'resources/mapas/Esperanza-panico-comidaM.png',
   'DATA'),
  ('resources/mapas/Ira-desplazamiento-tipo2M.png',
   'resources/mapas/Ira-desplazamiento-tipo2M.png',
   'DATA'),
  ('resources/mapas/Feliz-panico-depredador.png',
   'resources/mapas/Feliz-panico-depredador.png',
   'DATA'),
  ('resources/mapas/Miedo-panico-depredador.png',
   'resources/mapas/Miedo-panico-depredador.png',
   'DATA'),
  ('resources/fuentes/Montserrat-Bold.ttf',
   'resources/fuentes/Montserrat-Bold.ttf',
   'DATA'),
  ('resources/mapas/Esperanza-desplazamiento-tipo1M.png',
   'resources/mapas/Esperanza-desplazamiento-tipo1M.png',
   'DATA'),
  ('resources/fuentes/Montserrat-Medium.ttf',
   'resources/fuentes/Montserrat-Medium.ttf',
   'DATA'),
  ('resources/imagenes/ingresar-parametros/btn-back.png',
   'resources/imagenes/ingresar-parametros/btn-back.png',
   'DATA'),
  ('resources/imagenes/simulacion/disminuir-hoover.png',
   'resources/imagenes/simulacion/disminuir-hoover.png',
   'DATA'),
  ('resources/imagenes/simulacion/reiniciar-hoover.png',
   'resources/imagenes/simulacion/reiniciar-hoover.png',
   'DATA'),
  ('resources/mapas/24258.png', 'resources/mapas/24258.png', 'DATA'),
  ('resources/imagenes/configuracion/btn-cargar-hoover.png',
   'resources/imagenes/configuracion/btn-cargar-hoover.png',
   'DATA'),
  ('resources/imagenes/configuracion/btn-ok.png',
   'resources/imagenes/configuracion/btn-ok.png',
   'DATA'),
  ('resources/imagenes/simulacion/disminuir.png',
   'resources/imagenes/simulacion/disminuir.png',
   'DATA'),
  ('resources/imagenes/simulacion/panel-simulacion.png',
   'resources/imagenes/simulacion/panel-simulacion.png',
   'DATA'),
  ('resources/imagenes/inicio/btn-next.png',
   'resources/imagenes/inicio/btn-next.png',
   'DATA'),
  ('resources/mapas/Esperanza-agrupamiento.png',
   'resources/mapas/Esperanza-agrupamiento.png',
   'DATA'),
  ('resources/mapas/Miedo-desplazamiento-tipo1.png',
   'resources/mapas/Miedo-desplazamiento-tipo1.png',
   'DATA'),
  ('resources/imagenes/simulacion/detener-hoover.png',
   'resources/imagenes/simulacion/detener-hoover.png',
   'DATA'),
  ('resources/fuentes/Square.ttf', 'resources/fuentes/Square.ttf', 'DATA'),
  ('resources/fuentes/Roboto-Medium.ttf',
   'resources/fuentes/Roboto-Medium.ttf',
   'DATA'),
  ('resources/imagenes/ingresar-parametros/input-enable.png',
   'resources/imagenes/ingresar-parametros/input-enable.png',
   'DATA'),
  ('resources/mapas/Ira-agrupamiento-aislamiento.png',
   'resources/mapas/Ira-agrupamiento-aislamiento.png',
   'DATA'),
  ('resources/mapas/Miedo-desplazamiento-tipo2.png',
   'resources/mapas/Miedo-desplazamiento-tipo2.png',
   'DATA'),
  ('resources/mapas/Miedo-agrupamiento-aislamientoM.png',
   'resources/mapas/Miedo-agrupamiento-aislamientoM.png',
   'DATA'),
  ('resources/mapas/Esperanza-desplazamiento-tipo2.png',
   'resources/mapas/Esperanza-desplazamiento-tipo2.png',
   'DATA'),
  ('resources/mapas/depredador.png', 'resources/mapas/depredador.png', 'DATA'),
  ('resources/mapas/Ira-panico-comidaM.png',
   'resources/mapas/Ira-panico-comidaM.png',
   'DATA'),
  ('resources/imagenes/ingresar-parametros/Panel-entorno.png',
   'resources/imagenes/ingresar-parametros/Panel-entorno.png',
   'DATA'),
  ('resources/mapas/Esperanza-panico-depredadorM.png',
   'resources/mapas/Esperanza-panico-depredadorM.png',
   'DATA'),
  ('resources/mapas/Miedo-agrupamiento-aislamiento.png',
   'resources/mapas/Miedo-agrupamiento-aislamiento.png',
   'DATA'),
  ('resources/imagenes/ingresar-parametros/btn-back-hoover.png',
   'resources/imagenes/ingresar-parametros/btn-back-hoover.png',
   'DATA'),
  ('resources/mapas/Feliz-panico-depredadorM.png',
   'resources/mapas/Feliz-panico-depredadorM.png',
   'DATA'),
  ('resources/mapas/Ira-desplazamiento-tipo1M.png',
   'resources/mapas/Ira-desplazamiento-tipo1M.png',
   'DATA'),
  ('resources/mapas/Esperanza-agrupamiento-aislamientoM.png',
   'resources/mapas/Esperanza-agrupamiento-aislamientoM.png',
   'DATA')],)
