('/media/lauraroma/0A8423BE06D94565/Trabajo de '
 'Grado/trabajo-de-grado/main/build/main/PYZ-00.pyz',
 [('pkg_resources',
   '/home/lauraroma/miniconda3/envs/tg/lib/python3.8/site-packages/pkg_resources/__init__.py',
   'PYMODULE'),
  ('pkg_resources.py2_warn',
   '/home/lauraroma/miniconda3/envs/tg/lib/python3.8/site-packages/pkg_resources/py2_warn.py',
   'PYMODULE'),
  ('pkg_resources._vendor.packaging.__about__',
   '/home/lauraroma/miniconda3/envs/tg/lib/python3.8/site-packages/pkg_resources/_vendor/packaging/__about__.py',
   'PYMODULE'),
  ('pkg_resources._vendor.packaging._structures',
   '/home/lauraroma/miniconda3/envs/tg/lib/python3.8/site-packages/pkg_resources/_vendor/packaging/_structures.py',
   'PYMODULE'),
  ('pkg_resources._vendor.packaging.utils',
   '/home/lauraroma/miniconda3/envs/tg/lib/python3.8/site-packages/pkg_resources/_vendor/packaging/utils.py',
   'PYMODULE'),
  ('pkg_resources._vendor.packaging._compat',
   '/home/lauraroma/miniconda3/envs/tg/lib/python3.8/site-packages/pkg_resources/_vendor/packaging/_compat.py',
   'PYMODULE'),
  ('pkg_resources._vendor.appdirs',
   '/home/lauraroma/miniconda3/envs/tg/lib/python3.8/site-packages/pkg_resources/_vendor/appdirs.py',
   'PYMODULE'),
  ('ctypes',
   '/home/lauraroma/miniconda3/envs/tg/lib/python3.8/ctypes/__init__.py',
   'PYMODULE'),
  ('ctypes._endian',
   '/home/lauraroma/miniconda3/envs/tg/lib/python3.8/ctypes/_endian.py',
   'PYMODULE'),
  ('struct',
   '/home/lauraroma/miniconda3/envs/tg/lib/python3.8/struct.py',
   'PYMODULE'),
  ('pkg_resources._vendor.packaging',
   '/home/lauraroma/miniconda3/envs/tg/lib/python3.8/site-packages/pkg_resources/_vendor/packaging/__init__.py',
   'PYMODULE'),
  ('pkg_resources._vendor',
   '/home/lauraroma/miniconda3/envs/tg/lib/python3.8/site-packages/pkg_resources/_vendor/__init__.py',
   'PYMODULE'),
  ('pkg_resources._vendor.packaging.version',
   '/home/lauraroma/miniconda3/envs/tg/lib/python3.8/site-packages/pkg_resources/_vendor/packaging/version.py',
   'PYMODULE'),
  ('pkg_resources._vendor.packaging.requirements',
   '/home/lauraroma/miniconda3/envs/tg/lib/python3.8/site-packages/pkg_resources/_vendor/packaging/requirements.py',
   'PYMODULE'),
  ('string',
   '/home/lauraroma/miniconda3/envs/tg/lib/python3.8/string.py',
   'PYMODULE'),
  ('pkg_resources._vendor.packaging.markers',
   '/home/lauraroma/miniconda3/envs/tg/lib/python3.8/site-packages/pkg_resources/_vendor/packaging/markers.py',
   'PYMODULE'),
  ('pkg_resources._vendor.packaging.specifiers',
   '/home/lauraroma/miniconda3/envs/tg/lib/python3.8/site-packages/pkg_resources/_vendor/packaging/specifiers.py',
   'PYMODULE'),
  ('pkg_resources._vendor.pyparsing',
   '/home/lauraroma/miniconda3/envs/tg/lib/python3.8/site-packages/pkg_resources/_vendor/pyparsing.py',
   'PYMODULE'),
  ('uuid',
   '/home/lauraroma/miniconda3/envs/tg/lib/python3.8/uuid.py',
   'PYMODULE'),
  ('hashlib',
   '/home/lauraroma/miniconda3/envs/tg/lib/python3.8/hashlib.py',
   'PYMODULE'),
  ('logging',
   '/home/lauraroma/miniconda3/envs/tg/lib/python3.8/logging/__init__.py',
   'PYMODULE'),
  ('pickle',
   '/home/lauraroma/miniconda3/envs/tg/lib/python3.8/pickle.py',
   'PYMODULE'),
  ('argparse',
   '/home/lauraroma/miniconda3/envs/tg/lib/python3.8/argparse.py',
   'PYMODULE'),
  ('gettext',
   '/home/lauraroma/miniconda3/envs/tg/lib/python3.8/gettext.py',
   'PYMODULE'),
  ('doctest',
   '/home/lauraroma/miniconda3/envs/tg/lib/python3.8/doctest.py',
   'PYMODULE'),
  ('unittest',
   '/home/lauraroma/miniconda3/envs/tg/lib/python3.8/unittest/__init__.py',
   'PYMODULE'),
  ('unittest.signals',
   '/home/lauraroma/miniconda3/envs/tg/lib/python3.8/unittest/signals.py',
   'PYMODULE'),
  ('signal',
   '/home/lauraroma/miniconda3/envs/tg/lib/python3.8/signal.py',
   'PYMODULE'),
  ('unittest.main',
   '/home/lauraroma/miniconda3/envs/tg/lib/python3.8/unittest/main.py',
   'PYMODULE'),
  ('unittest.runner',
   '/home/lauraroma/miniconda3/envs/tg/lib/python3.8/unittest/runner.py',
   'PYMODULE'),
  ('unittest.loader',
   '/home/lauraroma/miniconda3/envs/tg/lib/python3.8/unittest/loader.py',
   'PYMODULE'),
  ('fnmatch',
   '/home/lauraroma/miniconda3/envs/tg/lib/python3.8/fnmatch.py',
   'PYMODULE'),
  ('unittest.suite',
   '/home/lauraroma/miniconda3/envs/tg/lib/python3.8/unittest/suite.py',
   'PYMODULE'),
  ('unittest.case',
   '/home/lauraroma/miniconda3/envs/tg/lib/python3.8/unittest/case.py',
   'PYMODULE'),
  ('contextlib',
   '/home/lauraroma/miniconda3/envs/tg/lib/python3.8/contextlib.py',
   'PYMODULE'),
  ('unittest.async_case',
   '/home/lauraroma/miniconda3/envs/tg/lib/python3.8/unittest/async_case.py',
   'PYMODULE'),
  ('asyncio',
   '/home/lauraroma/miniconda3/envs/tg/lib/python3.8/asyncio/__init__.py',
   'PYMODULE'),
  ('asyncio.unix_events',
   '/home/lauraroma/miniconda3/envs/tg/lib/python3.8/asyncio/unix_events.py',
   'PYMODULE'),
  ('asyncio.log',
   '/home/lauraroma/miniconda3/envs/tg/lib/python3.8/asyncio/log.py',
   'PYMODULE'),
  ('selectors',
   '/home/lauraroma/miniconda3/envs/tg/lib/python3.8/selectors.py',
   'PYMODULE'),
  ('asyncio.windows_events',
   '/home/lauraroma/miniconda3/envs/tg/lib/python3.8/asyncio/windows_events.py',
   'PYMODULE'),
  ('asyncio.windows_utils',
   '/home/lauraroma/miniconda3/envs/tg/lib/python3.8/asyncio/windows_utils.py',
   'PYMODULE'),
  ('asyncio.selector_events',
   '/home/lauraroma/miniconda3/envs/tg/lib/python3.8/asyncio/selector_events.py',
   'PYMODULE'),
  ('ssl',
   '/home/lauraroma/miniconda3/envs/tg/lib/python3.8/ssl.py',
   'PYMODULE'),
  ('calendar',
   '/home/lauraroma/miniconda3/envs/tg/lib/python3.8/calendar.py',
   'PYMODULE'),
  ('base64',
   '/home/lauraroma/miniconda3/envs/tg/lib/python3.8/base64.py',
   'PYMODULE'),
  ('getopt',
   '/home/lauraroma/miniconda3/envs/tg/lib/python3.8/getopt.py',
   'PYMODULE'),
  ('asyncio.proactor_events',
   '/home/lauraroma/miniconda3/envs/tg/lib/python3.8/asyncio/proactor_events.py',
   'PYMODULE'),
  ('asyncio.base_subprocess',
   '/home/lauraroma/miniconda3/envs/tg/lib/python3.8/asyncio/base_subprocess.py',
   'PYMODULE'),
  ('asyncio.subprocess',
   '/home/lauraroma/miniconda3/envs/tg/lib/python3.8/asyncio/subprocess.py',
   'PYMODULE'),
  ('asyncio.streams',
   '/home/lauraroma/miniconda3/envs/tg/lib/python3.8/asyncio/streams.py',
   'PYMODULE'),
  ('asyncio.queues',
   '/home/lauraroma/miniconda3/envs/tg/lib/python3.8/asyncio/queues.py',
   'PYMODULE'),
  ('asyncio.runners',
   '/home/lauraroma/miniconda3/envs/tg/lib/python3.8/asyncio/runners.py',
   'PYMODULE'),
  ('asyncio.events',
   '/home/lauraroma/miniconda3/envs/tg/lib/python3.8/asyncio/events.py',
   'PYMODULE'),
  ('contextvars',
   '/home/lauraroma/miniconda3/envs/tg/lib/python3.8/contextvars.py',
   'PYMODULE'),
  ('asyncio.trsock',
   '/home/lauraroma/miniconda3/envs/tg/lib/python3.8/asyncio/trsock.py',
   'PYMODULE'),
  ('asyncio.staggered',
   '/home/lauraroma/miniconda3/envs/tg/lib/python3.8/asyncio/staggered.py',
   'PYMODULE'),
  ('typing',
   '/home/lauraroma/miniconda3/envs/tg/lib/python3.8/typing.py',
   'PYMODULE'),
  ('asyncio.tasks',
   '/home/lauraroma/miniconda3/envs/tg/lib/python3.8/asyncio/tasks.py',
   'PYMODULE'),
  ('concurrent.futures',
   '/home/lauraroma/miniconda3/envs/tg/lib/python3.8/concurrent/futures/__init__.py',
   'PYMODULE'),
  ('concurrent.futures.thread',
   '/home/lauraroma/miniconda3/envs/tg/lib/python3.8/concurrent/futures/thread.py',
   'PYMODULE'),
  ('queue',
   '/home/lauraroma/miniconda3/envs/tg/lib/python3.8/queue.py',
   'PYMODULE'),
  ('concurrent.futures.process',
   '/home/lauraroma/miniconda3/envs/tg/lib/python3.8/concurrent/futures/process.py',
   'PYMODULE'),
  ('multiprocessing.queues',
   '/home/lauraroma/miniconda3/envs/tg/lib/python3.8/multiprocessing/queues.py',
   'PYMODULE'),
  ('multiprocessing.synchronize',
   '/home/lauraroma/miniconda3/envs/tg/lib/python3.8/multiprocessing/synchronize.py',
   'PYMODULE'),
  ('multiprocessing.heap',
   '/home/lauraroma/miniconda3/envs/tg/lib/python3.8/multiprocessing/heap.py',
   'PYMODULE'),
  ('bisect',
   '/home/lauraroma/miniconda3/envs/tg/lib/python3.8/bisect.py',
   'PYMODULE'),
  ('multiprocessing.resource_tracker',
   '/home/lauraroma/miniconda3/envs/tg/lib/python3.8/multiprocessing/resource_tracker.py',
   'PYMODULE'),
  ('multiprocessing.spawn',
   '/home/lauraroma/miniconda3/envs/tg/lib/python3.8/multiprocessing/spawn.py',
   'PYMODULE'),
  ('runpy',
   '/home/lauraroma/miniconda3/envs/tg/lib/python3.8/runpy.py',
   'PYMODULE'),
  ('importlib.util',
   '/home/lauraroma/miniconda3/envs/tg/lib/python3.8/importlib/util.py',
   'PYMODULE'),
  ('importlib._bootstrap_external',
   '/home/lauraroma/miniconda3/envs/tg/lib/python3.8/importlib/_bootstrap_external.py',
   'PYMODULE'),
  ('importlib.metadata',
   '/home/lauraroma/miniconda3/envs/tg/lib/python3.8/importlib/metadata.py',
   'PYMODULE'),
  ('configparser',
   '/home/lauraroma/miniconda3/envs/tg/lib/python3.8/configparser.py',
   'PYMODULE'),
  ('pathlib',
   '/home/lauraroma/miniconda3/envs/tg/lib/python3.8/pathlib.py',
   'PYMODULE'),
  ('urllib.parse',
   '/home/lauraroma/miniconda3/envs/tg/lib/python3.8/urllib/parse.py',
   'PYMODULE'),
  ('urllib',
   '/home/lauraroma/miniconda3/envs/tg/lib/python3.8/urllib/__init__.py',
   'PYMODULE'),
  ('email',
   '/home/lauraroma/miniconda3/envs/tg/lib/python3.8/email/__init__.py',
   'PYMODULE'),
  ('email._header_value_parser',
   '/home/lauraroma/miniconda3/envs/tg/lib/python3.8/email/_header_value_parser.py',
   'PYMODULE'),
  ('email.utils',
   '/home/lauraroma/miniconda3/envs/tg/lib/python3.8/email/utils.py',
   'PYMODULE'),
  ('email._parseaddr',
   '/home/lauraroma/miniconda3/envs/tg/lib/python3.8/email/_parseaddr.py',
   'PYMODULE'),
  ('email._encoded_words',
   '/home/lauraroma/miniconda3/envs/tg/lib/python3.8/email/_encoded_words.py',
   'PYMODULE'),
  ('email.header',
   '/home/lauraroma/miniconda3/envs/tg/lib/python3.8/email/header.py',
   'PYMODULE'),
  ('email.base64mime',
   '/home/lauraroma/miniconda3/envs/tg/lib/python3.8/email/base64mime.py',
   'PYMODULE'),
  ('email.quoprimime',
   '/home/lauraroma/miniconda3/envs/tg/lib/python3.8/email/quoprimime.py',
   'PYMODULE'),
  ('email.charset',
   '/home/lauraroma/miniconda3/envs/tg/lib/python3.8/email/charset.py',
   'PYMODULE'),
  ('email.encoders',
   '/home/lauraroma/miniconda3/envs/tg/lib/python3.8/email/encoders.py',
   'PYMODULE'),
  ('quopri',
   '/home/lauraroma/miniconda3/envs/tg/lib/python3.8/quopri.py',
   'PYMODULE'),
  ('email.errors',
   '/home/lauraroma/miniconda3/envs/tg/lib/python3.8/email/errors.py',
   'PYMODULE'),
  ('csv',
   '/home/lauraroma/miniconda3/envs/tg/lib/python3.8/csv.py',
   'PYMODULE'),
  ('tokenize',
   '/home/lauraroma/miniconda3/envs/tg/lib/python3.8/tokenize.py',
   'PYMODULE'),
  ('token',
   '/home/lauraroma/miniconda3/envs/tg/lib/python3.8/token.py',
   'PYMODULE'),
  ('importlib._bootstrap',
   '/home/lauraroma/miniconda3/envs/tg/lib/python3.8/importlib/_bootstrap.py',
   'PYMODULE'),
  ('importlib.abc',
   '/home/lauraroma/miniconda3/envs/tg/lib/python3.8/importlib/abc.py',
   'PYMODULE'),
  ('importlib',
   '/home/lauraroma/miniconda3/envs/tg/lib/python3.8/importlib/__init__.py',
   'PYMODULE'),
  ('multiprocessing.process',
   '/home/lauraroma/miniconda3/envs/tg/lib/python3.8/multiprocessing/process.py',
   'PYMODULE'),
  ('multiprocessing.util',
   '/home/lauraroma/miniconda3/envs/tg/lib/python3.8/multiprocessing/util.py',
   'PYMODULE'),
  ('multiprocessing.forkserver',
   '/home/lauraroma/miniconda3/envs/tg/lib/python3.8/multiprocessing/forkserver.py',
   'PYMODULE'),
  ('test.support',
   '/home/lauraroma/miniconda3/envs/tg/lib/python3.8/test/support/__init__.py',
   'PYMODULE'),
  ('decimal',
   '/home/lauraroma/miniconda3/envs/tg/lib/python3.8/decimal.py',
   'PYMODULE'),
  ('_pydecimal',
   '/home/lauraroma/miniconda3/envs/tg/lib/python3.8/_pydecimal.py',
   'PYMODULE'),
  ('numbers',
   '/home/lauraroma/miniconda3/envs/tg/lib/python3.8/numbers.py',
   'PYMODULE'),
  ('distutils.spawn',
   '/home/lauraroma/miniconda3/envs/tg/lib/python3.8/distutils/spawn.py',
   'PYMODULE'),
  ('distutils.log',
   '/home/lauraroma/miniconda3/envs/tg/lib/python3.8/distutils/log.py',
   'PYMODULE'),
  ('distutils.debug',
   '/home/lauraroma/miniconda3/envs/tg/lib/python3.8/distutils/debug.py',
   'PYMODULE'),
  ('distutils.errors',
   '/home/lauraroma/miniconda3/envs/tg/lib/python3.8/distutils/errors.py',
   'PYMODULE'),
  ('distutils.sysconfig',
   '/home/lauraroma/miniconda3/envs/tg/lib/python3.8/distutils/sysconfig.py',
   'PYMODULE'),
  ('distutils.text_file',
   '/home/lauraroma/miniconda3/envs/tg/lib/python3.8/distutils/text_file.py',
   'PYMODULE'),
  ('_osx_support',
   '/home/lauraroma/miniconda3/envs/tg/lib/python3.8/_osx_support.py',
   'PYMODULE'),
  ('distutils.util',
   '/home/lauraroma/miniconda3/envs/tg/lib/python3.8/distutils/util.py',
   'PYMODULE'),
  ('distutils.filelist',
   '/home/lauraroma/miniconda3/envs/tg/lib/python3.8/distutils/filelist.py',
   'PYMODULE'),
  ('distutils.file_util',
   '/home/lauraroma/miniconda3/envs/tg/lib/python3.8/distutils/file_util.py',
   'PYMODULE'),
  ('distutils.dir_util',
   '/home/lauraroma/miniconda3/envs/tg/lib/python3.8/distutils/dir_util.py',
   'PYMODULE'),
  ('lib2to3.refactor',
   '/home/lauraroma/miniconda3/envs/tg/lib/python3.8/lib2to3/refactor.py',
   'PYMODULE'),
  ('lib2to3.btm_matcher',
   '/home/lauraroma/miniconda3/envs/tg/lib/python3.8/lib2to3/btm_matcher.py',
   'PYMODULE'),
  ('lib2to3.btm_utils',
   '/home/lauraroma/miniconda3/envs/tg/lib/python3.8/lib2to3/btm_utils.py',
   'PYMODULE'),
  ('lib2to3.pgen2.grammar',
   '/home/lauraroma/miniconda3/envs/tg/lib/python3.8/lib2to3/pgen2/grammar.py',
   'PYMODULE'),
  ('lib2to3.pygram',
   '/home/lauraroma/miniconda3/envs/tg/lib/python3.8/lib2to3/pygram.py',
   'PYMODULE'),
  ('lib2to3.pytree',
   '/home/lauraroma/miniconda3/envs/tg/lib/python3.8/lib2to3/pytree.py',
   'PYMODULE'),
  ('lib2to3',
   '/home/lauraroma/miniconda3/envs/tg/lib/python3.8/lib2to3/__init__.py',
   'PYMODULE'),
  ('lib2to3.patcomp',
   '/home/lauraroma/miniconda3/envs/tg/lib/python3.8/lib2to3/patcomp.py',
   'PYMODULE'),
  ('lib2to3.pgen2.parse',
   '/home/lauraroma/miniconda3/envs/tg/lib/python3.8/lib2to3/pgen2/parse.py',
   'PYMODULE'),
  ('lib2to3.pgen2.literals',
   '/home/lauraroma/miniconda3/envs/tg/lib/python3.8/lib2to3/pgen2/literals.py',
   'PYMODULE'),
  ('lib2to3.fixer_util',
   '/home/lauraroma/miniconda3/envs/tg/lib/python3.8/lib2to3/fixer_util.py',
   'PYMODULE'),
  ('lib2to3.pgen2.token',
   '/home/lauraroma/miniconda3/envs/tg/lib/python3.8/lib2to3/pgen2/token.py',
   'PYMODULE'),
  ('lib2to3.pgen2.tokenize',
   '/home/lauraroma/miniconda3/envs/tg/lib/python3.8/lib2to3/pgen2/tokenize.py',
   'PYMODULE'),
  ('lib2to3.pgen2.driver',
   '/home/lauraroma/miniconda3/envs/tg/lib/python3.8/lib2to3/pgen2/driver.py',
   'PYMODULE'),
  ('lib2to3.pgen2.pgen',
   '/home/lauraroma/miniconda3/envs/tg/lib/python3.8/lib2to3/pgen2/pgen.py',
   'PYMODULE'),
  ('lib2to3.pgen2',
   '/home/lauraroma/miniconda3/envs/tg/lib/python3.8/lib2to3/pgen2/__init__.py',
   'PYMODULE'),
  ('py_compile',
   '/home/lauraroma/miniconda3/envs/tg/lib/python3.8/py_compile.py',
   'PYMODULE'),
  ('distutils.dep_util',
   '/home/lauraroma/miniconda3/envs/tg/lib/python3.8/distutils/dep_util.py',
   'PYMODULE'),
  ('distutils.ccompiler',
   '/home/lauraroma/miniconda3/envs/tg/lib/python3.8/distutils/ccompiler.py',
   'PYMODULE'),
  ('distutils.fancy_getopt',
   '/home/lauraroma/miniconda3/envs/tg/lib/python3.8/distutils/fancy_getopt.py',
   'PYMODULE'),
  ('distutils',
   '/home/lauraroma/miniconda3/envs/tg/lib/python3.8/distutils/__init__.py',
   'PYMODULE'),
  ('tracemalloc',
   '/home/lauraroma/miniconda3/envs/tg/lib/python3.8/tracemalloc.py',
   'PYMODULE'),
  ('urllib.request',
   '/home/lauraroma/miniconda3/envs/tg/lib/python3.8/urllib/request.py',
   'PYMODULE'),
  ('getpass',
   '/home/lauraroma/miniconda3/envs/tg/lib/python3.8/getpass.py',
   'PYMODULE'),
  ('nturl2path',
   '/home/lauraroma/miniconda3/envs/tg/lib/python3.8/nturl2path.py',
   'PYMODULE'),
  ('ftplib',
   '/home/lauraroma/miniconda3/envs/tg/lib/python3.8/ftplib.py',
   'PYMODULE'),
  ('netrc',
   '/home/lauraroma/miniconda3/envs/tg/lib/python3.8/netrc.py',
   'PYMODULE'),
  ('shlex',
   '/home/lauraroma/miniconda3/envs/tg/lib/python3.8/shlex.py',
   'PYMODULE'),
  ('mimetypes',
   '/home/lauraroma/miniconda3/envs/tg/lib/python3.8/mimetypes.py',
   'PYMODULE'),
  ('http.cookiejar',
   '/home/lauraroma/miniconda3/envs/tg/lib/python3.8/http/cookiejar.py',
   'PYMODULE'),
  ('http',
   '/home/lauraroma/miniconda3/envs/tg/lib/python3.8/http/__init__.py',
   'PYMODULE'),
  ('urllib.response',
   '/home/lauraroma/miniconda3/envs/tg/lib/python3.8/urllib/response.py',
   'PYMODULE'),
  ('http.client',
   '/home/lauraroma/miniconda3/envs/tg/lib/python3.8/http/client.py',
   'PYMODULE'),
  ('email.message',
   '/home/lauraroma/miniconda3/envs/tg/lib/python3.8/email/message.py',
   'PYMODULE'),
  ('email.policy',
   '/home/lauraroma/miniconda3/envs/tg/lib/python3.8/email/policy.py',
   'PYMODULE'),
  ('email.contentmanager',
   '/home/lauraroma/miniconda3/envs/tg/lib/python3.8/email/contentmanager.py',
   'PYMODULE'),
  ('email.headerregistry',
   '/home/lauraroma/miniconda3/envs/tg/lib/python3.8/email/headerregistry.py',
   'PYMODULE'),
  ('email.iterators',
   '/home/lauraroma/miniconda3/envs/tg/lib/python3.8/email/iterators.py',
   'PYMODULE'),
  ('email.generator',
   '/home/lauraroma/miniconda3/envs/tg/lib/python3.8/email/generator.py',
   'PYMODULE'),
  ('email._policybase',
   '/home/lauraroma/miniconda3/envs/tg/lib/python3.8/email/_policybase.py',
   'PYMODULE'),
  ('uu', '/home/lauraroma/miniconda3/envs/tg/lib/python3.8/uu.py', 'PYMODULE'),
  ('optparse',
   '/home/lauraroma/miniconda3/envs/tg/lib/python3.8/optparse.py',
   'PYMODULE'),
  ('tkinter',
   '/home/lauraroma/miniconda3/envs/tg/lib/python3.8/tkinter/__init__.py',
   'PYMODULE'),
  ('tkinter.commondialog',
   '/home/lauraroma/miniconda3/envs/tg/lib/python3.8/tkinter/commondialog.py',
   'PYMODULE'),
  ('tkinter.constants',
   '/home/lauraroma/miniconda3/envs/tg/lib/python3.8/tkinter/constants.py',
   'PYMODULE'),
  ('ctypes.wintypes',
   '/home/lauraroma/miniconda3/envs/tg/lib/python3.8/ctypes/wintypes.py',
   'PYMODULE'),
  ('lzma',
   '/home/lauraroma/miniconda3/envs/tg/lib/python3.8/lzma.py',
   'PYMODULE'),
  ('_compression',
   '/home/lauraroma/miniconda3/envs/tg/lib/python3.8/_compression.py',
   'PYMODULE'),
  ('bz2',
   '/home/lauraroma/miniconda3/envs/tg/lib/python3.8/bz2.py',
   'PYMODULE'),
  ('gzip',
   '/home/lauraroma/miniconda3/envs/tg/lib/python3.8/gzip.py',
   'PYMODULE'),
  ('test.support.testresult',
   '/home/lauraroma/miniconda3/envs/tg/lib/python3.8/test/support/testresult.py',
   'PYMODULE'),
  ('xml.etree.ElementTree',
   '/home/lauraroma/miniconda3/envs/tg/lib/python3.8/xml/etree/ElementTree.py',
   'PYMODULE'),
  ('xml.etree.cElementTree',
   '/home/lauraroma/miniconda3/envs/tg/lib/python3.8/xml/etree/cElementTree.py',
   'PYMODULE'),
  ('xml.etree.ElementInclude',
   '/home/lauraroma/miniconda3/envs/tg/lib/python3.8/xml/etree/ElementInclude.py',
   'PYMODULE'),
  ('xml.parsers.expat',
   '/home/lauraroma/miniconda3/envs/tg/lib/python3.8/xml/parsers/expat.py',
   'PYMODULE'),
  ('xml.parsers',
   '/home/lauraroma/miniconda3/envs/tg/lib/python3.8/xml/parsers/__init__.py',
   'PYMODULE'),
  ('xml',
   '/home/lauraroma/miniconda3/envs/tg/lib/python3.8/xml/__init__.py',
   'PYMODULE'),
  ('xml.sax.expatreader',
   '/home/lauraroma/miniconda3/envs/tg/lib/python3.8/xml/sax/expatreader.py',
   'PYMODULE'),
  ('xml.sax.saxutils',
   '/home/lauraroma/miniconda3/envs/tg/lib/python3.8/xml/sax/saxutils.py',
   'PYMODULE'),
  ('xml.sax',
   '/home/lauraroma/miniconda3/envs/tg/lib/python3.8/xml/sax/__init__.py',
   'PYMODULE'),
  ('xml.sax.handler',
   '/home/lauraroma/miniconda3/envs/tg/lib/python3.8/xml/sax/handler.py',
   'PYMODULE'),
  ('xml.sax._exceptions',
   '/home/lauraroma/miniconda3/envs/tg/lib/python3.8/xml/sax/_exceptions.py',
   'PYMODULE'),
  ('xml.sax.xmlreader',
   '/home/lauraroma/miniconda3/envs/tg/lib/python3.8/xml/sax/xmlreader.py',
   'PYMODULE'),
  ('xml.etree.ElementPath',
   '/home/lauraroma/miniconda3/envs/tg/lib/python3.8/xml/etree/ElementPath.py',
   'PYMODULE'),
  ('xml.etree',
   '/home/lauraroma/miniconda3/envs/tg/lib/python3.8/xml/etree/__init__.py',
   'PYMODULE'),
  ('urllib.error',
   '/home/lauraroma/miniconda3/envs/tg/lib/python3.8/urllib/error.py',
   'PYMODULE'),
  ('nntplib',
   '/home/lauraroma/miniconda3/envs/tg/lib/python3.8/nntplib.py',
   'PYMODULE'),
  ('logging.handlers',
   '/home/lauraroma/miniconda3/envs/tg/lib/python3.8/logging/handlers.py',
   'PYMODULE'),
  ('smtplib',
   '/home/lauraroma/miniconda3/envs/tg/lib/python3.8/smtplib.py',
   'PYMODULE'),
  ('hmac',
   '/home/lauraroma/miniconda3/envs/tg/lib/python3.8/hmac.py',
   'PYMODULE'),
  ('glob',
   '/home/lauraroma/miniconda3/envs/tg/lib/python3.8/glob.py',
   'PYMODULE'),
  ('test',
   '/home/lauraroma/miniconda3/envs/tg/lib/python3.8/test/__init__.py',
   'PYMODULE'),
  ('multiprocessing.context',
   '/home/lauraroma/miniconda3/envs/tg/lib/python3.8/multiprocessing/context.py',
   'PYMODULE'),
  ('multiprocessing.popen_spawn_win32',
   '/home/lauraroma/miniconda3/envs/tg/lib/python3.8/multiprocessing/popen_spawn_win32.py',
   'PYMODULE'),
  ('multiprocessing.popen_forkserver',
   '/home/lauraroma/miniconda3/envs/tg/lib/python3.8/multiprocessing/popen_forkserver.py',
   'PYMODULE'),
  ('multiprocessing.popen_spawn_posix',
   '/home/lauraroma/miniconda3/envs/tg/lib/python3.8/multiprocessing/popen_spawn_posix.py',
   'PYMODULE'),
  ('multiprocessing.popen_fork',
   '/home/lauraroma/miniconda3/envs/tg/lib/python3.8/multiprocessing/popen_fork.py',
   'PYMODULE'),
  ('multiprocessing.sharedctypes',
   '/home/lauraroma/miniconda3/envs/tg/lib/python3.8/multiprocessing/sharedctypes.py',
   'PYMODULE'),
  ('multiprocessing.pool',
   '/home/lauraroma/miniconda3/envs/tg/lib/python3.8/multiprocessing/pool.py',
   'PYMODULE'),
  ('multiprocessing.dummy',
   '/home/lauraroma/miniconda3/envs/tg/lib/python3.8/multiprocessing/dummy/__init__.py',
   'PYMODULE'),
  ('multiprocessing.dummy.connection',
   '/home/lauraroma/miniconda3/envs/tg/lib/python3.8/multiprocessing/dummy/connection.py',
   'PYMODULE'),
  ('multiprocessing.managers',
   '/home/lauraroma/miniconda3/envs/tg/lib/python3.8/multiprocessing/managers.py',
   'PYMODULE'),
  ('multiprocessing.shared_memory',
   '/home/lauraroma/miniconda3/envs/tg/lib/python3.8/multiprocessing/shared_memory.py',
   'PYMODULE'),
  ('secrets',
   '/home/lauraroma/miniconda3/envs/tg/lib/python3.8/secrets.py',
   'PYMODULE'),
  ('multiprocessing.reduction',
   '/home/lauraroma/miniconda3/envs/tg/lib/python3.8/multiprocessing/reduction.py',
   'PYMODULE'),
  ('multiprocessing.resource_sharer',
   '/home/lauraroma/miniconda3/envs/tg/lib/python3.8/multiprocessing/resource_sharer.py',
   'PYMODULE'),
  ('multiprocessing.connection',
   '/home/lauraroma/miniconda3/envs/tg/lib/python3.8/multiprocessing/connection.py',
   'PYMODULE'),
  ('xmlrpc.client',
   '/home/lauraroma/miniconda3/envs/tg/lib/python3.8/xmlrpc/client.py',
   'PYMODULE'),
  ('xmlrpc',
   '/home/lauraroma/miniconda3/envs/tg/lib/python3.8/xmlrpc/__init__.py',
   'PYMODULE'),
  ('multiprocessing',
   '/home/lauraroma/miniconda3/envs/tg/lib/python3.8/multiprocessing/__init__.py',
   'PYMODULE'),
  ('concurrent.futures._base',
   '/home/lauraroma/miniconda3/envs/tg/lib/python3.8/concurrent/futures/_base.py',
   'PYMODULE'),
  ('concurrent',
   '/home/lauraroma/miniconda3/envs/tg/lib/python3.8/concurrent/__init__.py',
   'PYMODULE'),
  ('asyncio.base_tasks',
   '/home/lauraroma/miniconda3/envs/tg/lib/python3.8/asyncio/base_tasks.py',
   'PYMODULE'),
  ('asyncio.locks',
   '/home/lauraroma/miniconda3/envs/tg/lib/python3.8/asyncio/locks.py',
   'PYMODULE'),
  ('asyncio.sslproto',
   '/home/lauraroma/miniconda3/envs/tg/lib/python3.8/asyncio/sslproto.py',
   'PYMODULE'),
  ('asyncio.transports',
   '/home/lauraroma/miniconda3/envs/tg/lib/python3.8/asyncio/transports.py',
   'PYMODULE'),
  ('asyncio.base_events',
   '/home/lauraroma/miniconda3/envs/tg/lib/python3.8/asyncio/base_events.py',
   'PYMODULE'),
  ('asyncio.protocols',
   '/home/lauraroma/miniconda3/envs/tg/lib/python3.8/asyncio/protocols.py',
   'PYMODULE'),
  ('asyncio.futures',
   '/home/lauraroma/miniconda3/envs/tg/lib/python3.8/asyncio/futures.py',
   'PYMODULE'),
  ('asyncio.coroutines',
   '/home/lauraroma/miniconda3/envs/tg/lib/python3.8/asyncio/coroutines.py',
   'PYMODULE'),
  ('asyncio.base_futures',
   '/home/lauraroma/miniconda3/envs/tg/lib/python3.8/asyncio/base_futures.py',
   'PYMODULE'),
  ('asyncio.exceptions',
   '/home/lauraroma/miniconda3/envs/tg/lib/python3.8/asyncio/exceptions.py',
   'PYMODULE'),
  ('asyncio.format_helpers',
   '/home/lauraroma/miniconda3/envs/tg/lib/python3.8/asyncio/format_helpers.py',
   'PYMODULE'),
  ('asyncio.constants',
   '/home/lauraroma/miniconda3/envs/tg/lib/python3.8/asyncio/constants.py',
   'PYMODULE'),
  ('unittest.result',
   '/home/lauraroma/miniconda3/envs/tg/lib/python3.8/unittest/result.py',
   'PYMODULE'),
  ('unittest.util',
   '/home/lauraroma/miniconda3/envs/tg/lib/python3.8/unittest/util.py',
   'PYMODULE'),
  ('difflib',
   '/home/lauraroma/miniconda3/envs/tg/lib/python3.8/difflib.py',
   'PYMODULE'),
  ('_compat_pickle',
   '/home/lauraroma/miniconda3/envs/tg/lib/python3.8/_compat_pickle.py',
   'PYMODULE'),
  ('ctypes.util',
   '/home/lauraroma/miniconda3/envs/tg/lib/python3.8/ctypes/util.py',
   'PYMODULE'),
  ('ctypes._aix',
   '/home/lauraroma/miniconda3/envs/tg/lib/python3.8/ctypes/_aix.py',
   'PYMODULE'),
  ('ctypes.macholib.dyld',
   '/home/lauraroma/miniconda3/envs/tg/lib/python3.8/ctypes/macholib/dyld.py',
   'PYMODULE'),
  ('ctypes.macholib',
   '/home/lauraroma/miniconda3/envs/tg/lib/python3.8/ctypes/macholib/__init__.py',
   'PYMODULE'),
  ('ctypes.macholib.dylib',
   '/home/lauraroma/miniconda3/envs/tg/lib/python3.8/ctypes/macholib/dylib.py',
   'PYMODULE'),
  ('ctypes.macholib.framework',
   '/home/lauraroma/miniconda3/envs/tg/lib/python3.8/ctypes/macholib/framework.py',
   'PYMODULE'),
  ('socket',
   '/home/lauraroma/miniconda3/envs/tg/lib/python3.8/socket.py',
   'PYMODULE'),
  ('subprocess',
   '/home/lauraroma/miniconda3/envs/tg/lib/python3.8/subprocess.py',
   'PYMODULE'),
  ('shutil',
   '/home/lauraroma/miniconda3/envs/tg/lib/python3.8/shutil.py',
   'PYMODULE'),
  ('tarfile',
   '/home/lauraroma/miniconda3/envs/tg/lib/python3.8/tarfile.py',
   'PYMODULE'),
  ('pdb',
   '/home/lauraroma/miniconda3/envs/tg/lib/python3.8/pdb.py',
   'PYMODULE'),
  ('pydoc',
   '/home/lauraroma/miniconda3/envs/tg/lib/python3.8/pydoc.py',
   'PYMODULE'),
  ('webbrowser',
   '/home/lauraroma/miniconda3/envs/tg/lib/python3.8/webbrowser.py',
   'PYMODULE'),
  ('http.server',
   '/home/lauraroma/miniconda3/envs/tg/lib/python3.8/http/server.py',
   'PYMODULE'),
  ('socketserver',
   '/home/lauraroma/miniconda3/envs/tg/lib/python3.8/socketserver.py',
   'PYMODULE'),
  ('html',
   '/home/lauraroma/miniconda3/envs/tg/lib/python3.8/html/__init__.py',
   'PYMODULE'),
  ('html.entities',
   '/home/lauraroma/miniconda3/envs/tg/lib/python3.8/html/entities.py',
   'PYMODULE'),
  ('pydoc_data.topics',
   '/home/lauraroma/miniconda3/envs/tg/lib/python3.8/pydoc_data/topics.py',
   'PYMODULE'),
  ('pydoc_data',
   '/home/lauraroma/miniconda3/envs/tg/lib/python3.8/pydoc_data/__init__.py',
   'PYMODULE'),
  ('tty',
   '/home/lauraroma/miniconda3/envs/tg/lib/python3.8/tty.py',
   'PYMODULE'),
  ('code',
   '/home/lauraroma/miniconda3/envs/tg/lib/python3.8/code.py',
   'PYMODULE'),
  ('codeop',
   '/home/lauraroma/miniconda3/envs/tg/lib/python3.8/codeop.py',
   'PYMODULE'),
  ('dis',
   '/home/lauraroma/miniconda3/envs/tg/lib/python3.8/dis.py',
   'PYMODULE'),
  ('opcode',
   '/home/lauraroma/miniconda3/envs/tg/lib/python3.8/opcode.py',
   'PYMODULE'),
  ('bdb',
   '/home/lauraroma/miniconda3/envs/tg/lib/python3.8/bdb.py',
   'PYMODULE'),
  ('cmd',
   '/home/lauraroma/miniconda3/envs/tg/lib/python3.8/cmd.py',
   'PYMODULE'),
  ('threading',
   '/home/lauraroma/miniconda3/envs/tg/lib/python3.8/threading.py',
   'PYMODULE'),
  ('_threading_local',
   '/home/lauraroma/miniconda3/envs/tg/lib/python3.8/_threading_local.py',
   'PYMODULE'),
  ('datetime',
   '/home/lauraroma/miniconda3/envs/tg/lib/python3.8/datetime.py',
   'PYMODULE'),
  ('_strptime',
   '/home/lauraroma/miniconda3/envs/tg/lib/python3.8/_strptime.py',
   'PYMODULE'),
  ('pprint',
   '/home/lauraroma/miniconda3/envs/tg/lib/python3.8/pprint.py',
   'PYMODULE'),
  ('copy',
   '/home/lauraroma/miniconda3/envs/tg/lib/python3.8/copy.py',
   'PYMODULE'),
  ('pkg_resources._vendor.six',
   '/home/lauraroma/miniconda3/envs/tg/lib/python3.8/site-packages/pkg_resources/_vendor/six.py',
   'PYMODULE'),
  ('sysconfig',
   '/home/lauraroma/miniconda3/envs/tg/lib/python3.8/sysconfig.py',
   'PYMODULE'),
  ('_sysconfigdata__linux_x86_64-linux-gnu',
   '/home/lauraroma/miniconda3/envs/tg/lib/python3.8/_sysconfigdata__linux_x86_64-linux-gnu.py',
   'PYMODULE'),
  ('pkg_resources.py31compat',
   '/home/lauraroma/miniconda3/envs/tg/lib/python3.8/site-packages/pkg_resources/py31compat.py',
   'PYMODULE'),
  ('importlib.machinery',
   '/home/lauraroma/miniconda3/envs/tg/lib/python3.8/importlib/machinery.py',
   'PYMODULE'),
  ('pkg_resources.extern',
   '/home/lauraroma/miniconda3/envs/tg/lib/python3.8/site-packages/pkg_resources/extern/__init__.py',
   'PYMODULE'),
  ('imp',
   '/home/lauraroma/miniconda3/envs/tg/lib/python3.8/imp.py',
   'PYMODULE'),
  ('posixpath',
   '/home/lauraroma/miniconda3/envs/tg/lib/python3.8/posixpath.py',
   'PYMODULE'),
  ('genericpath',
   '/home/lauraroma/miniconda3/envs/tg/lib/python3.8/genericpath.py',
   'PYMODULE'),
  ('ntpath',
   '/home/lauraroma/miniconda3/envs/tg/lib/python3.8/ntpath.py',
   'PYMODULE'),
  ('inspect',
   '/home/lauraroma/miniconda3/envs/tg/lib/python3.8/inspect.py',
   'PYMODULE'),
  ('ast',
   '/home/lauraroma/miniconda3/envs/tg/lib/python3.8/ast.py',
   'PYMODULE'),
  ('textwrap',
   '/home/lauraroma/miniconda3/envs/tg/lib/python3.8/textwrap.py',
   'PYMODULE'),
  ('tempfile',
   '/home/lauraroma/miniconda3/envs/tg/lib/python3.8/tempfile.py',
   'PYMODULE'),
  ('email.parser',
   '/home/lauraroma/miniconda3/envs/tg/lib/python3.8/email/parser.py',
   'PYMODULE'),
  ('email.feedparser',
   '/home/lauraroma/miniconda3/envs/tg/lib/python3.8/email/feedparser.py',
   'PYMODULE'),
  ('plistlib',
   '/home/lauraroma/miniconda3/envs/tg/lib/python3.8/plistlib.py',
   'PYMODULE'),
  ('platform',
   '/home/lauraroma/miniconda3/envs/tg/lib/python3.8/platform.py',
   'PYMODULE'),
  ('pkgutil',
   '/home/lauraroma/miniconda3/envs/tg/lib/python3.8/pkgutil.py',
   'PYMODULE'),
  ('stat',
   '/home/lauraroma/miniconda3/envs/tg/lib/python3.8/stat.py',
   'PYMODULE'),
  ('zipimport',
   '/home/lauraroma/miniconda3/envs/tg/lib/python3.8/zipimport.py',
   'PYMODULE'),
  ('zipfile',
   '/home/lauraroma/miniconda3/envs/tg/lib/python3.8/zipfile.py',
   'PYMODULE'),
  ('os', '/home/lauraroma/miniconda3/envs/tg/lib/python3.8/os.py', 'PYMODULE'),
  ('__future__',
   '/home/lauraroma/miniconda3/envs/tg/lib/python3.8/__future__.py',
   'PYMODULE'),
  ('stringprep',
   '/home/lauraroma/miniconda3/envs/tg/lib/python3.8/stringprep.py',
   'PYMODULE'),
  ('_py_abc',
   '/home/lauraroma/miniconda3/envs/tg/lib/python3.8/_py_abc.py',
   'PYMODULE'),
  ('random',
   '/home/lauraroma/miniconda3/envs/tg/lib/python3.8/random.py',
   'PYMODULE'),
  ('GUI',
   '/media/lauraroma/0A8423BE06D94565/Trabajo de '
   'Grado/trabajo-de-grado/main/GUI.py',
   'PYMODULE'),
  ('easygui',
   '/home/lauraroma/miniconda3/envs/tg/lib/python3.8/site-packages/easygui/__init__.py',
   'PYMODULE'),
  ('easygui.boxes.demo',
   '/home/lauraroma/miniconda3/envs/tg/lib/python3.8/site-packages/easygui/boxes/demo.py',
   'PYMODULE'),
  ('easygui.boxes.utils',
   '/home/lauraroma/miniconda3/envs/tg/lib/python3.8/site-packages/easygui/boxes/utils.py',
   'PYMODULE'),
  ('tkinter.font',
   '/home/lauraroma/miniconda3/envs/tg/lib/python3.8/tkinter/font.py',
   'PYMODULE'),
  ('tkinter.filedialog',
   '/home/lauraroma/miniconda3/envs/tg/lib/python3.8/tkinter/filedialog.py',
   'PYMODULE'),
  ('tkinter.dialog',
   '/home/lauraroma/miniconda3/envs/tg/lib/python3.8/tkinter/dialog.py',
   'PYMODULE'),
  ('easygui.boxes',
   '/home/lauraroma/miniconda3/envs/tg/lib/python3.8/site-packages/easygui/boxes/__init__.py',
   'PYMODULE'),
  ('easygui.boxes.fileboxsetup',
   '/home/lauraroma/miniconda3/envs/tg/lib/python3.8/site-packages/easygui/boxes/fileboxsetup.py',
   'PYMODULE'),
  ('easygui.boxes.global_state',
   '/home/lauraroma/miniconda3/envs/tg/lib/python3.8/site-packages/easygui/boxes/global_state.py',
   'PYMODULE'),
  ('easygui.boxes.about',
   '/home/lauraroma/miniconda3/envs/tg/lib/python3.8/site-packages/easygui/boxes/about.py',
   'PYMODULE'),
  ('easygui.boxes.egstore',
   '/home/lauraroma/miniconda3/envs/tg/lib/python3.8/site-packages/easygui/boxes/egstore.py',
   'PYMODULE'),
  ('easygui.boxes.choice_box',
   '/home/lauraroma/miniconda3/envs/tg/lib/python3.8/site-packages/easygui/boxes/choice_box.py',
   'PYMODULE'),
  ('easygui.boxes.base_boxes',
   '/home/lauraroma/miniconda3/envs/tg/lib/python3.8/site-packages/easygui/boxes/base_boxes.py',
   'PYMODULE'),
  ('easygui.boxes.multi_fillable_box',
   '/home/lauraroma/miniconda3/envs/tg/lib/python3.8/site-packages/easygui/boxes/multi_fillable_box.py',
   'PYMODULE'),
  ('easygui.boxes.derived_boxes',
   '/home/lauraroma/miniconda3/envs/tg/lib/python3.8/site-packages/easygui/boxes/derived_boxes.py',
   'PYMODULE'),
  ('easygui.boxes.fillable_box',
   '/home/lauraroma/miniconda3/envs/tg/lib/python3.8/site-packages/easygui/boxes/fillable_box.py',
   'PYMODULE'),
  ('easygui.boxes.text_box',
   '/home/lauraroma/miniconda3/envs/tg/lib/python3.8/site-packages/easygui/boxes/text_box.py',
   'PYMODULE'),
  ('easygui.boxes.filesave_box',
   '/home/lauraroma/miniconda3/envs/tg/lib/python3.8/site-packages/easygui/boxes/filesave_box.py',
   'PYMODULE'),
  ('easygui.boxes.fileopen_box',
   '/home/lauraroma/miniconda3/envs/tg/lib/python3.8/site-packages/easygui/boxes/fileopen_box.py',
   'PYMODULE'),
  ('easygui.boxes.diropen_box',
   '/home/lauraroma/miniconda3/envs/tg/lib/python3.8/site-packages/easygui/boxes/diropen_box.py',
   'PYMODULE'),
  ('easygui.boxes.button_box',
   '/home/lauraroma/miniconda3/envs/tg/lib/python3.8/site-packages/easygui/boxes/button_box.py',
   'PYMODULE'),
  ('pygame.locals',
   '/home/lauraroma/miniconda3/envs/tg/lib/python3.8/site-packages/pygame/locals.py',
   'PYMODULE'),
  ('pygame',
   '/home/lauraroma/miniconda3/envs/tg/lib/python3.8/site-packages/pygame/__init__.py',
   'PYMODULE'),
  ('pygame.colordict',
   '/home/lauraroma/miniconda3/envs/tg/lib/python3.8/site-packages/pygame/colordict.py',
   'PYMODULE'),
  ('pygame.macosx',
   '/home/lauraroma/miniconda3/envs/tg/lib/python3.8/site-packages/pygame/macosx.py',
   'PYMODULE'),
  ('pygame.pkgdata',
   '/home/lauraroma/miniconda3/envs/tg/lib/python3.8/site-packages/pygame/pkgdata.py',
   'PYMODULE'),
  ('pygame.sndarray',
   '/home/lauraroma/miniconda3/envs/tg/lib/python3.8/site-packages/pygame/sndarray.py',
   'PYMODULE'),
  ('pygame._numpysndarray',
   '/home/lauraroma/miniconda3/envs/tg/lib/python3.8/site-packages/pygame/_numpysndarray.py',
   'PYMODULE'),
  ('pygame.surfarray',
   '/home/lauraroma/miniconda3/envs/tg/lib/python3.8/site-packages/pygame/surfarray.py',
   'PYMODULE'),
  ('pygame._numpysurfarray',
   '/home/lauraroma/miniconda3/envs/tg/lib/python3.8/site-packages/pygame/_numpysurfarray.py',
   'PYMODULE'),
  ('pygame.sysfont',
   '/home/lauraroma/miniconda3/envs/tg/lib/python3.8/site-packages/pygame/sysfont.py',
   'PYMODULE'),
  ('pygame.ftfont',
   '/home/lauraroma/miniconda3/envs/tg/lib/python3.8/site-packages/pygame/ftfont.py',
   'PYMODULE'),
  ('pygame.threads',
   '/home/lauraroma/miniconda3/envs/tg/lib/python3.8/site-packages/pygame/threads/__init__.py',
   'PYMODULE'),
  ('pygame.sprite',
   '/home/lauraroma/miniconda3/envs/tg/lib/python3.8/site-packages/pygame/sprite.py',
   'PYMODULE'),
  ('pygame.cursors',
   '/home/lauraroma/miniconda3/envs/tg/lib/python3.8/site-packages/pygame/cursors.py',
   'PYMODULE'),
  ('pygame.compat',
   '/home/lauraroma/miniconda3/envs/tg/lib/python3.8/site-packages/pygame/compat.py',
   'PYMODULE'),
  ('pygame.version',
   '/home/lauraroma/miniconda3/envs/tg/lib/python3.8/site-packages/pygame/version.py',
   'PYMODULE')])
